30,10,48,0,2,1,1
74,15,73,38,106,8,14,34,15,2,12,17,2,75,4,38,29,100,70,3,1,19,73,23,69,6,25,14,1,40
1,1,2,2,3,3,4,4,4,4,4,4,5,6,6,6,6,8,8,8,8,9,9,9,10,10,10,10,10,10
1,1,1,1,1,1,1,1,1,1,1,1,1,1,1,1,1,1,1,1,1,1,1,1,1,1,1,1,1,1
1,1,1,1,1,1,1,1,1,1,1,1,1,1,1,1,1,1,1,1,1,1,1,1,1,1,1,1,1,1
0,0
1,3
Phi:
1,2
3,4
5,6
7,8
7,9
8,9
7,10
8,10
9,10
7,11
8,11
9,11
10,11
7,12
8,12
9,12
10,12
11,12
14,15
14,16
15,16
14,17
15,17
16,17
18,19
18,20
19,20
18,21
19,21
20,21
22,23
22,24
23,24
25,26
25,27
26,27
25,28
26,28
27,28
25,29
26,29
27,29
28,29
25,30
26,30
27,30
28,30
29,30
Psi:
end.
