<?xml version="1.0" standalone="yes"?><!DOCTYPE svg PUBLIC "-//W3C//DTD SVG 20010904//EN" "http://www.w3.org/TR/2001/REC-SVG-20010904/DTD/svg10.dtd">
<svg xmlns="http://www.w3.org/2000/svg">
<line x1="0"  y1="385" x2="575" y2="385" style="stroke:#000000; stroke-width: 6px;"/>
<line x1="360" y1="385" x2="360" y2="0" style="stroke:#000000; stroke-width: 2px; stroke-dasharray: 10 5;"/>
<text fill="BLACK" font-size="30" x="360" y="405">36</text>
<line x1="240" y1="385" x2="240" y2="0" style="stroke:#000000; stroke-width: 2px; stroke-dasharray: 10 5;"/>
<text fill="BLACK" font-size="30" x="240" y="405">24</text>
<line x1="420" y1="385" x2="420" y2="0" style="stroke:#000000; stroke-width: 2px; stroke-dasharray: 10 5;"/>
<text fill="BLACK" font-size="30" x="420" y="405">42</text>
<line x1="520" y1="385" x2="520" y2="0" style="stroke:#000000; stroke-width: 2px; stroke-dasharray: 10 5;"/>
<text fill="BLACK" font-size="30" x="520" y="405">52</text>
<rect rx="13" x="260" y="0" height="50" width="100" style="fill:#3544;"/>
<text fill="black" font-size="30" x="310" y="35" >1</text>
<rect rx="13" x="140" y="110" height="50" width="100" style="fill:#3544;"/>
<text fill="black" font-size="30" x="190" y="145" >2</text>
<rect rx="13" x="20" y="220" height="50" width="400" style="fill:#9911;"/>
<text fill="black" font-size="30" x="220" y="255" >3</text>
<rect rx="13" x="420" y="330" height="50" width="100" style="fill:#3544;"/>
<text fill="black" font-size="30" x="470" y="365" >4</text>
</svg>
