<?xml version="1.0" standalone="yes"?><!DOCTYPE svg PUBLIC "-//W3C//DTD SVG 20010904//EN" "http://www.w3.org/TR/2001/REC-SVG-20010904/DTD/svg10.dtd">
<svg xmlns="http://www.w3.org/2000/svg">
<line x1="0"  y1="1100" x2="2445" y2="1100" style="stroke:#000000; stroke-width: 6px;"/>
<line x1="1010" y1="1100" x2="1010"   y2="0" style="stroke:#000000; stroke-width: 2px; stroke-dasharray: 10 5;"/>
<text fill="BLACK" font-size="30" x="1010" y="1120">101</text>
<line x1="1640" y1="1100" x2="1640"   y2="0" style="stroke:#000000; stroke-width: 2px; stroke-dasharray: 10 5;"/>
<text fill="BLACK" font-size="30" x="1640" y="1120">164</text>
<line x1="1990" y1="1100" x2="1990"   y2="0" style="stroke:#000000; stroke-width: 2px; stroke-dasharray: 10 5;"/>
<text fill="BLACK" font-size="30" x="1990" y="1120">199</text>
<line x1="1420" y1="1100" x2="1420"   y2="0" style="stroke:#000000; stroke-width: 2px; stroke-dasharray: 10 5;"/>
<text fill="BLACK" font-size="30" x="1420" y="1120">142</text>
<line x1="520" y1="1100" x2="520"   y2="0" style="stroke:#000000; stroke-width: 2px; stroke-dasharray: 10 5;"/>
<text fill="BLACK" font-size="30" x="520" y="1120">52</text>
<line x1="2020" y1="1100" x2="2020"   y2="0" style="stroke:#000000; stroke-width: 2px; stroke-dasharray: 10 5;"/>
<text fill="BLACK" font-size="30" x="2020" y="1120">202</text>
<line x1="2040" y1="1100" x2="2040"   y2="0" style="stroke:#000000; stroke-width: 2px; stroke-dasharray: 10 5;"/>
<text fill="BLACK" font-size="30" x="2040" y="1120">204</text>
<line x1="2380" y1="1100" x2="2380"   y2="0" style="stroke:#000000; stroke-width: 2px; stroke-dasharray: 10 5;"/>
<text fill="BLACK" font-size="30" x="2380" y="1120">238</text>
<line x1="1390" y1="1100" x2="1390"   y2="0" style="stroke:#000000; stroke-width: 2px; stroke-dasharray: 10 5;"/>
<text fill="BLACK" font-size="30" x="1390" y="1120">139</text>
<line x1="1620" y1="1100" x2="1620"   y2="0" style="stroke:#000000; stroke-width: 2px; stroke-dasharray: 10 5;"/>
<text fill="BLACK" font-size="30" x="1620" y="1120">162</text>
<line x1="1090" y1="1100" x2="1090"   y2="0" style="stroke:#000000; stroke-width: 2px; stroke-dasharray: 10 5;"/>
<text fill="BLACK" font-size="30" x="1090" y="1120">109</text>
<line x1="600" y1="1100" x2="600"   y2="0" style="stroke:#000000; stroke-width: 2px; stroke-dasharray: 10 5;"/>
<text fill="BLACK" font-size="30" x="600" y="1120">60</text>
<line x1="840" y1="1100" x2="840"   y2="0" style="stroke:#000000; stroke-width: 2px; stroke-dasharray: 10 5;"/>
<text fill="BLACK" font-size="30" x="840" y="1120">84</text>
<line x1="1940" y1="1100" x2="1940"   y2="0" style="stroke:#000000; stroke-width: 2px; stroke-dasharray: 10 5;"/>
<text fill="BLACK" font-size="30" x="1940" y="1120">194</text>
<line x1="2390" y1="1100" x2="2390"   y2="0" style="stroke:#000000; stroke-width: 2px; stroke-dasharray: 10 5;"/>
<text fill="BLACK" font-size="30" x="2390" y="1120">239</text>
<line x1="1860" y1="1100" x2="1860"   y2="0" style="stroke:#000000; stroke-width: 2px; stroke-dasharray: 10 5;"/>
<text fill="BLACK" font-size="30" x="1860" y="1120">186</text>
<line x1="260" y1="1100" x2="260"   y2="0" style="stroke:#000000; stroke-width: 2px; stroke-dasharray: 10 5;"/>
<text fill="BLACK" font-size="30" x="260" y="1120">26</text>
<line x1="2370" y1="1100" x2="2370"   y2="0" style="stroke:#000000; stroke-width: 2px; stroke-dasharray: 10 5;"/>
<text fill="BLACK" font-size="30" x="2370" y="1120">237</text>
<line x1="470" y1="1100" x2="470"   y2="0" style="stroke:#000000; stroke-width: 2px; stroke-dasharray: 10 5;"/>
<text fill="BLACK" font-size="30" x="470" y="1120">47</text>
<line x1="1070" y1="1100" x2="1070"   y2="0" style="stroke:#000000; stroke-width: 2px; stroke-dasharray: 10 5;"/>
<text fill="BLACK" font-size="30" x="1070" y="1120">107</text>
<rect rx="13" x="470" y="55" height="50" width="540" style="fill:#dcdcdc"/>
<text fill="black" font-size="30" x="740" y="90">1</text>
<rect rx="13" x="1410" y="715" height="50" width="230" style="fill:#a52a2a"/>
<text fill="black" font-size="30" x="1525" y="750">2</text>
<rect rx="13" x="1640" y="715" height="50" width="350" style="fill:#a52a2a"/>
<text fill="black" font-size="30" x="1815" y="750">3</text>
<rect rx="13" x="1120" y="990" height="50" width="300" style="fill:#006400"/>
<text fill="black" font-size="30" x="1270" y="1025">4</text>
<rect rx="13" x="10" y="660" height="50" width="510" style="fill:#006400"/>
<text fill="black" font-size="30" x="265" y="695">5</text>
<rect rx="13" x="1940" y="275" height="50" width="80" style="fill:#dcdcdc"/>
<text fill="black" font-size="30" x="1980" y="310">6</text>
<rect rx="13" x="2030" y="330" height="50" width="10" style="fill:#dcdcdc"/>
<text fill="black" font-size="30" x="2035" y="365">7</text>
<rect rx="13" x="1870" y="1045" height="50" width="510" style="fill:#006400"/>
<text fill="black" font-size="30" x="2125" y="1080">8</text>
<rect rx="13" x="1080" y="605" height="50" width="310" style="fill:#a52a2a"/>
<text fill="black" font-size="30" x="1235" y="640">9</text>
<rect rx="13" x="1030" y="165" height="50" width="590" style="fill:#dcdcdc"/>
<text fill="black" font-size="30" x="1325" y="200">10</text>
<rect rx="13" x="550" y="825" height="50" width="540" style="fill:#006400"/>
<text fill="black" font-size="30" x="820" y="860">11</text>
<rect rx="13" x="260" y="440" height="50" width="340" style="fill:#a52a2a"/>
<text fill="black" font-size="30" x="430" y="475">12</text>
<rect rx="13" x="620" y="550" height="50" width="220" style="fill:#a52a2a"/>
<text fill="black" font-size="30" x="730" y="585">13</text>
<rect rx="13" x="1640" y="275" height="50" width="300" style="fill:#dcdcdc"/>
<text fill="black" font-size="30" x="1790" y="310">14</text>
<rect rx="13" x="2000" y="770" height="50" width="390" style="fill:#a52a2a"/>
<text fill="black" font-size="30" x="2195" y="805">15</text>
<rect rx="13" x="1420" y="990" height="50" width="440" style="fill:#006400"/>
<text fill="black" font-size="30" x="1640" y="1025">16</text>
<rect rx="13" x="20" y="440" height="50" width="240" style="fill:#a52a2a"/>
<text fill="black" font-size="30" x="140" y="475">17</text>
<rect rx="13" x="2050" y="385" height="50" width="320" style="fill:#dcdcdc"/>
<text fill="black" font-size="30" x="2210" y="420">18</text>
<rect rx="13" x="10" y="55" height="50" width="460" style="fill:#dcdcdc"/>
<text fill="black" font-size="30" x="240" y="90">19</text>
<rect rx="13" x="840" y="550" height="50" width="230" style="fill:#a52a2a"/>
<text fill="black" font-size="30" x="955" y="585">20</text>
</svg>
