<?xml version="1.0" standalone="yes"?><!DOCTYPE svg PUBLIC "-//W3C//DTD SVG 20010904//EN" "http://www.w3.org/TR/2001/REC-SVG-20010904/DTD/svg10.dtd">
<svg xmlns="http://www.w3.org/2000/svg">
<line x1="0"  y1="1100" x2="4365" y2="1100" style="stroke:#000000; stroke-width: 6px;"/>
<line x1="3430" y1="1100" x2="3430"   y2="0" style="stroke:#000000; stroke-width: 2px; stroke-dasharray: 10 5;"/>
<text fill="BLACK" font-size="30" x="3430" y="1120">343</text>
<line x1="3720" y1="1100" x2="3720"   y2="0" style="stroke:#000000; stroke-width: 2px; stroke-dasharray: 10 5;"/>
<text fill="BLACK" font-size="30" x="3720" y="1120">372</text>
<line x1="3800" y1="1100" x2="3800"   y2="0" style="stroke:#000000; stroke-width: 2px; stroke-dasharray: 10 5;"/>
<text fill="BLACK" font-size="30" x="3800" y="1120">380</text>
<line x1="3930" y1="1100" x2="3930"   y2="0" style="stroke:#000000; stroke-width: 2px; stroke-dasharray: 10 5;"/>
<text fill="BLACK" font-size="30" x="3930" y="1120">393</text>
<line x1="370" y1="1100" x2="370"   y2="0" style="stroke:#000000; stroke-width: 2px; stroke-dasharray: 10 5;"/>
<text fill="BLACK" font-size="30" x="370" y="1120">37</text>
<line x1="940" y1="1100" x2="940"   y2="0" style="stroke:#000000; stroke-width: 2px; stroke-dasharray: 10 5;"/>
<text fill="BLACK" font-size="30" x="940" y="1120">94</text>
<line x1="1930" y1="1100" x2="1930"   y2="0" style="stroke:#000000; stroke-width: 2px; stroke-dasharray: 10 5;"/>
<text fill="BLACK" font-size="30" x="1930" y="1120">193</text>
<line x1="2480" y1="1100" x2="2480"   y2="0" style="stroke:#000000; stroke-width: 2px; stroke-dasharray: 10 5;"/>
<text fill="BLACK" font-size="30" x="2480" y="1120">248</text>
<line x1="3070" y1="1100" x2="3070"   y2="0" style="stroke:#000000; stroke-width: 2px; stroke-dasharray: 10 5;"/>
<text fill="BLACK" font-size="30" x="3070" y="1120">307</text>
<line x1="4320" y1="1100" x2="4320"   y2="0" style="stroke:#000000; stroke-width: 2px; stroke-dasharray: 10 5;"/>
<text fill="BLACK" font-size="30" x="4320" y="1120">432</text>
<line x1="4320" y1="1100" x2="4320"   y2="0" style="stroke:#000000; stroke-width: 2px; stroke-dasharray: 10 5;"/>
<text fill="BLACK" font-size="30" x="4320" y="1120">432</text>
<line x1="1460" y1="1100" x2="1460"   y2="0" style="stroke:#000000; stroke-width: 2px; stroke-dasharray: 10 5;"/>
<text fill="BLACK" font-size="30" x="1460" y="1120">146</text>
<line x1="720" y1="1100" x2="720"   y2="0" style="stroke:#000000; stroke-width: 2px; stroke-dasharray: 10 5;"/>
<text fill="BLACK" font-size="30" x="720" y="1120">72</text>
<line x1="60" y1="1100" x2="60"   y2="0" style="stroke:#000000; stroke-width: 2px; stroke-dasharray: 10 5;"/>
<text fill="BLACK" font-size="30" x="60" y="1120">6</text>
<line x1="340" y1="1100" x2="340"   y2="0" style="stroke:#000000; stroke-width: 2px; stroke-dasharray: 10 5;"/>
<text fill="BLACK" font-size="30" x="340" y="1120">34</text>
<line x1="1680" y1="1100" x2="1680"   y2="0" style="stroke:#000000; stroke-width: 2px; stroke-dasharray: 10 5;"/>
<text fill="BLACK" font-size="30" x="1680" y="1120">168</text>
<line x1="2820" y1="1100" x2="2820"   y2="0" style="stroke:#000000; stroke-width: 2px; stroke-dasharray: 10 5;"/>
<text fill="BLACK" font-size="30" x="2820" y="1120">282</text>
<line x1="260" y1="1100" x2="260"   y2="0" style="stroke:#000000; stroke-width: 2px; stroke-dasharray: 10 5;"/>
<text fill="BLACK" font-size="30" x="260" y="1120">26</text>
<line x1="3080" y1="1100" x2="3080"   y2="0" style="stroke:#000000; stroke-width: 2px; stroke-dasharray: 10 5;"/>
<text fill="BLACK" font-size="30" x="3080" y="1120">308</text>
<line x1="3310" y1="1100" x2="3310"   y2="0" style="stroke:#000000; stroke-width: 2px; stroke-dasharray: 10 5;"/>
<text fill="BLACK" font-size="30" x="3310" y="1120">331</text>
<rect rx="13" x="3090" y="495" height="50" width="340" style="fill:#a52a2a"/>
<text fill="black" font-size="30" x="3260" y="530">1</text>
<rect rx="13" x="3430" y="495" height="50" width="290" style="fill:#a52a2a"/>
<text fill="black" font-size="30" x="3575" y="530">2</text>
<rect rx="13" x="3330" y="990" height="50" width="470" style="fill:#006400"/>
<text fill="black" font-size="30" x="3565" y="1025">3</text>
<rect rx="13" x="3730" y="550" height="50" width="200" style="fill:#a52a2a"/>
<text fill="black" font-size="30" x="3830" y="585">4</text>
<rect rx="13" x="20" y="605" height="50" width="350" style="fill:#006400"/>
<text fill="black" font-size="30" x="195" y="640">5</text>
<rect rx="13" x="730" y="220" height="50" width="210" style="fill:#dcdcdc"/>
<text fill="black" font-size="30" x="835" y="255">6</text>
<rect rx="13" x="1700" y="770" height="50" width="230" style="fill:#dcdcdc"/>
<text fill="black" font-size="30" x="1815" y="805">7</text>
<rect rx="13" x="2020" y="385" height="50" width="460" style="fill:#a52a2a"/>
<text fill="black" font-size="30" x="2250" y="420">8</text>
<rect rx="13" x="2830" y="825" height="50" width="240" style="fill:#006400"/>
<text fill="black" font-size="30" x="2950" y="860">9</text>
<rect rx="13" x="3990" y="770" height="50" width="330" style="fill:#dcdcdc"/>
<text fill="black" font-size="30" x="4155" y="805">10</text>
<rect rx="13" x="3890" y="1045" height="50" width="430" style="fill:#006400"/>
<text fill="black" font-size="30" x="4105" y="1080">11</text>
<rect rx="13" x="970" y="385" height="50" width="490" style="fill:#dcdcdc"/>
<text fill="black" font-size="30" x="1215" y="420">12</text>
<rect rx="13" x="270" y="165" height="50" width="450" style="fill:#dcdcdc"/>
<text fill="black" font-size="30" x="495" y="200">13</text>
<rect rx="13" x="0" y="330" height="50" width="60" style="fill:#a52a2a"/>
<text fill="black" font-size="30" x="30" y="365">14</text>
<rect rx="13" x="60" y="330" height="50" width="280" style="fill:#a52a2a"/>
<text fill="black" font-size="30" x="200" y="365">15</text>
<rect rx="13" x="1510" y="660" height="50" width="170" style="fill:#dcdcdc"/>
<text fill="black" font-size="30" x="1595" y="695">16</text>
<rect rx="13" x="2380" y="770" height="50" width="440" style="fill:#006400"/>
<text fill="black" font-size="30" x="2600" y="805">17</text>
<rect rx="13" x="20" y="110" height="50" width="240" style="fill:#dcdcdc"/>
<text fill="black" font-size="30" x="140" y="145">18</text>
<rect rx="13" x="2490" y="440" height="50" width="590" style="fill:#a52a2a"/>
<text fill="black" font-size="30" x="2785" y="475">19</text>
<rect rx="13" x="3080" y="880" height="50" width="230" style="fill:#006400"/>
<text fill="black" font-size="30" x="3195" y="915">20</text>
</svg>
