<?xml version="1.0" standalone="yes"?><!DOCTYPE svg PUBLIC "-//W3C//DTD SVG 20010904//EN" "http://www.w3.org/TR/2001/REC-SVG-20010904/DTD/svg10.dtd">
<svg xmlns="http://www.w3.org/2000/svg">
<line x1="0"  y1="1100" x2="3335" y2="1100" style="stroke:#000000; stroke-width: 6px;"/>
<line x1="1530" y1="1100" x2="1530"   y2="0" style="stroke:#000000; stroke-width: 2px; stroke-dasharray: 10 5;"/>
<text fill="BLACK" font-size="30" x="1530" y="1120">153</text>
<line x1="1000" y1="1100" x2="1000"   y2="0" style="stroke:#000000; stroke-width: 2px; stroke-dasharray: 10 5;"/>
<text fill="BLACK" font-size="30" x="1000" y="1120">100</text>
<line x1="390" y1="1100" x2="390"   y2="0" style="stroke:#000000; stroke-width: 2px; stroke-dasharray: 10 5;"/>
<text fill="BLACK" font-size="30" x="390" y="1120">39</text>
<line x1="3290" y1="1100" x2="3290"   y2="0" style="stroke:#000000; stroke-width: 2px; stroke-dasharray: 10 5;"/>
<text fill="BLACK" font-size="30" x="3290" y="1120">329</text>
<line x1="2100" y1="1100" x2="2100"   y2="0" style="stroke:#000000; stroke-width: 2px; stroke-dasharray: 10 5;"/>
<text fill="BLACK" font-size="30" x="2100" y="1120">210</text>
<line x1="1250" y1="1100" x2="1250"   y2="0" style="stroke:#000000; stroke-width: 2px; stroke-dasharray: 10 5;"/>
<text fill="BLACK" font-size="30" x="1250" y="1120">125</text>
<line x1="90" y1="1100" x2="90"   y2="0" style="stroke:#000000; stroke-width: 2px; stroke-dasharray: 10 5;"/>
<text fill="BLACK" font-size="30" x="90" y="1120">9</text>
<line x1="2320" y1="1100" x2="2320"   y2="0" style="stroke:#000000; stroke-width: 2px; stroke-dasharray: 10 5;"/>
<text fill="BLACK" font-size="30" x="2320" y="1120">232</text>
<line x1="200" y1="1100" x2="200"   y2="0" style="stroke:#000000; stroke-width: 2px; stroke-dasharray: 10 5;"/>
<text fill="BLACK" font-size="30" x="200" y="1120">20</text>
<line x1="2710" y1="1100" x2="2710"   y2="0" style="stroke:#000000; stroke-width: 2px; stroke-dasharray: 10 5;"/>
<text fill="BLACK" font-size="30" x="2710" y="1120">271</text>
<line x1="2320" y1="1100" x2="2320"   y2="0" style="stroke:#000000; stroke-width: 2px; stroke-dasharray: 10 5;"/>
<text fill="BLACK" font-size="30" x="2320" y="1120">232</text>
<line x1="900" y1="1100" x2="900"   y2="0" style="stroke:#000000; stroke-width: 2px; stroke-dasharray: 10 5;"/>
<text fill="BLACK" font-size="30" x="900" y="1120">90</text>
<line x1="2600" y1="1100" x2="2600"   y2="0" style="stroke:#000000; stroke-width: 2px; stroke-dasharray: 10 5;"/>
<text fill="BLACK" font-size="30" x="2600" y="1120">260</text>
<line x1="2110" y1="1100" x2="2110"   y2="0" style="stroke:#000000; stroke-width: 2px; stroke-dasharray: 10 5;"/>
<text fill="BLACK" font-size="30" x="2110" y="1120">211</text>
<line x1="2380" y1="1100" x2="2380"   y2="0" style="stroke:#000000; stroke-width: 2px; stroke-dasharray: 10 5;"/>
<text fill="BLACK" font-size="30" x="2380" y="1120">238</text>
<line x1="2170" y1="1100" x2="2170"   y2="0" style="stroke:#000000; stroke-width: 2px; stroke-dasharray: 10 5;"/>
<text fill="BLACK" font-size="30" x="2170" y="1120">217</text>
<line x1="250" y1="1100" x2="250"   y2="0" style="stroke:#000000; stroke-width: 2px; stroke-dasharray: 10 5;"/>
<text fill="BLACK" font-size="30" x="250" y="1120">25</text>
<line x1="510" y1="1100" x2="510"   y2="0" style="stroke:#000000; stroke-width: 2px; stroke-dasharray: 10 5;"/>
<text fill="BLACK" font-size="30" x="510" y="1120">51</text>
<line x1="1160" y1="1100" x2="1160"   y2="0" style="stroke:#000000; stroke-width: 2px; stroke-dasharray: 10 5;"/>
<text fill="BLACK" font-size="30" x="1160" y="1120">116</text>
<line x1="1360" y1="1100" x2="1360"   y2="0" style="stroke:#000000; stroke-width: 2px; stroke-dasharray: 10 5;"/>
<text fill="BLACK" font-size="30" x="1360" y="1120">136</text>
<rect rx="13" x="1380" y="550" height="50" width="150" style="fill:#006400"/>
<text fill="black" font-size="30" x="1455" y="585">1</text>
<rect rx="13" x="520" y="55" height="50" width="480" style="fill:#dcdcdc"/>
<text fill="black" font-size="30" x="760" y="90">2</text>
<rect rx="13" x="210" y="275" height="50" width="180" style="fill:#a52a2a"/>
<text fill="black" font-size="30" x="300" y="310">3</text>
<rect rx="13" x="2720" y="990" height="50" width="570" style="fill:#006400"/>
<text fill="black" font-size="30" x="3005" y="1025">4</text>
<rect rx="13" x="1540" y="385" height="50" width="560" style="fill:#dcdcdc"/>
<text fill="black" font-size="30" x="1820" y="420">5</text>
<rect rx="13" x="1180" y="275" height="50" width="70" style="fill:#dcdcdc"/>
<text fill="black" font-size="30" x="1215" y="310">6</text>
<rect rx="13" x="0" y="715" height="50" width="90" style="fill:#006400"/>
<text fill="black" font-size="30" x="45" y="750">7</text>
<rect rx="13" x="2110" y="440" height="50" width="210" style="fill:#dcdcdc"/>
<text fill="black" font-size="30" x="2215" y="475">8</text>
<rect rx="13" x="0" y="330" height="50" width="200" style="fill:#a52a2a"/>
<text fill="black" font-size="30" x="100" y="365">9</text>
<rect rx="13" x="2620" y="935" height="50" width="90" style="fill:#006400"/>
<text fill="black" font-size="30" x="2665" y="970">10</text>
<rect rx="13" x="2170" y="660" height="50" width="150" style="fill:#a52a2a"/>
<text fill="black" font-size="30" x="2245" y="695">11</text>
<rect rx="13" x="400" y="220" height="50" width="500" style="fill:#a52a2a"/>
<text fill="black" font-size="30" x="650" y="255">12</text>
<rect rx="13" x="2390" y="825" height="50" width="210" style="fill:#006400"/>
<text fill="black" font-size="30" x="2495" y="860">13</text>
<rect rx="13" x="1590" y="660" height="50" width="520" style="fill:#a52a2a"/>
<text fill="black" font-size="30" x="1850" y="695">14</text>
<rect rx="13" x="2170" y="770" height="50" width="210" style="fill:#006400"/>
<text fill="black" font-size="30" x="2275" y="805">15</text>
<rect rx="13" x="1570" y="770" height="50" width="600" style="fill:#006400"/>
<text fill="black" font-size="30" x="1870" y="805">16</text>
<rect rx="13" x="0" y="0" height="50" width="250" style="fill:#dcdcdc"/>
<text fill="black" font-size="30" x="125" y="35">17</text>
<rect rx="13" x="250" y="0" height="50" width="260" style="fill:#dcdcdc"/>
<text fill="black" font-size="30" x="380" y="35">18</text>
<rect rx="13" x="1020" y="165" height="50" width="140" style="fill:#dcdcdc"/>
<text fill="black" font-size="30" x="1090" y="200">19</text>
<rect rx="13" x="960" y="550" height="50" width="400" style="fill:#a52a2a"/>
<text fill="black" font-size="30" x="1160" y="585">20</text>
</svg>
