<?xml version="1.0" standalone="yes"?><!DOCTYPE svg PUBLIC "-//W3C//DTD SVG 20010904//EN" "http://www.w3.org/TR/2001/REC-SVG-20010904/DTD/svg10.dtd">
<svg xmlns="http://www.w3.org/2000/svg">
<line x1="0"  y1="1100" x2="3065" y2="1100" style="stroke:#000000; stroke-width: 6px;"/>
<line x1="1950" y1="1100" x2="1950"   y2="0" style="stroke:#000000; stroke-width: 2px; stroke-dasharray: 10 5;"/>
<text fill="BLACK" font-size="30" x="1950" y="1120">195</text>
<line x1="920" y1="1100" x2="920"   y2="0" style="stroke:#000000; stroke-width: 2px; stroke-dasharray: 10 5;"/>
<text fill="BLACK" font-size="30" x="920" y="1120">92</text>
<line x1="1050" y1="1100" x2="1050"   y2="0" style="stroke:#000000; stroke-width: 2px; stroke-dasharray: 10 5;"/>
<text fill="BLACK" font-size="30" x="1050" y="1120">105</text>
<line x1="1950" y1="1100" x2="1950"   y2="0" style="stroke:#000000; stroke-width: 2px; stroke-dasharray: 10 5;"/>
<text fill="BLACK" font-size="30" x="1950" y="1120">195</text>
<line x1="1440" y1="1100" x2="1440"   y2="0" style="stroke:#000000; stroke-width: 2px; stroke-dasharray: 10 5;"/>
<text fill="BLACK" font-size="30" x="1440" y="1120">144</text>
<line x1="1760" y1="1100" x2="1760"   y2="0" style="stroke:#000000; stroke-width: 2px; stroke-dasharray: 10 5;"/>
<text fill="BLACK" font-size="30" x="1760" y="1120">176</text>
<line x1="240" y1="1100" x2="240"   y2="0" style="stroke:#000000; stroke-width: 2px; stroke-dasharray: 10 5;"/>
<text fill="BLACK" font-size="30" x="240" y="1120">24</text>
<line x1="2080" y1="1100" x2="2080"   y2="0" style="stroke:#000000; stroke-width: 2px; stroke-dasharray: 10 5;"/>
<text fill="BLACK" font-size="30" x="2080" y="1120">208</text>
<line x1="600" y1="1100" x2="600"   y2="0" style="stroke:#000000; stroke-width: 2px; stroke-dasharray: 10 5;"/>
<text fill="BLACK" font-size="30" x="600" y="1120">60</text>
<line x1="1910" y1="1100" x2="1910"   y2="0" style="stroke:#000000; stroke-width: 2px; stroke-dasharray: 10 5;"/>
<text fill="BLACK" font-size="30" x="1910" y="1120">191</text>
<line x1="1610" y1="1100" x2="1610"   y2="0" style="stroke:#000000; stroke-width: 2px; stroke-dasharray: 10 5;"/>
<text fill="BLACK" font-size="30" x="1610" y="1120">161</text>
<line x1="1990" y1="1100" x2="1990"   y2="0" style="stroke:#000000; stroke-width: 2px; stroke-dasharray: 10 5;"/>
<text fill="BLACK" font-size="30" x="1990" y="1120">199</text>
<line x1="870" y1="1100" x2="870"   y2="0" style="stroke:#000000; stroke-width: 2px; stroke-dasharray: 10 5;"/>
<text fill="BLACK" font-size="30" x="870" y="1120">87</text>
<line x1="530" y1="1100" x2="530"   y2="0" style="stroke:#000000; stroke-width: 2px; stroke-dasharray: 10 5;"/>
<text fill="BLACK" font-size="30" x="530" y="1120">53</text>
<line x1="3020" y1="1100" x2="3020"   y2="0" style="stroke:#000000; stroke-width: 2px; stroke-dasharray: 10 5;"/>
<text fill="BLACK" font-size="30" x="3020" y="1120">302</text>
<line x1="1170" y1="1100" x2="1170"   y2="0" style="stroke:#000000; stroke-width: 2px; stroke-dasharray: 10 5;"/>
<text fill="BLACK" font-size="30" x="1170" y="1120">117</text>
<line x1="1540" y1="1100" x2="1540"   y2="0" style="stroke:#000000; stroke-width: 2px; stroke-dasharray: 10 5;"/>
<text fill="BLACK" font-size="30" x="1540" y="1120">154</text>
<line x1="1100" y1="1100" x2="1100"   y2="0" style="stroke:#000000; stroke-width: 2px; stroke-dasharray: 10 5;"/>
<text fill="BLACK" font-size="30" x="1100" y="1120">110</text>
<line x1="290" y1="1100" x2="290"   y2="0" style="stroke:#000000; stroke-width: 2px; stroke-dasharray: 10 5;"/>
<text fill="BLACK" font-size="30" x="290" y="1120">29</text>
<line x1="2680" y1="1100" x2="2680"   y2="0" style="stroke:#000000; stroke-width: 2px; stroke-dasharray: 10 5;"/>
<text fill="BLACK" font-size="30" x="2680" y="1120">268</text>
<rect rx="13" x="1930" y="935" height="50" width="20" style="fill:#006400"/>
<text fill="black" font-size="30" x="1940" y="970">1</text>
<rect rx="13" x="540" y="605" height="50" width="380" style="fill:#006400"/>
<text fill="black" font-size="30" x="730" y="640">2</text>
<rect rx="13" x="880" y="330" height="50" width="170" style="fill:#dcdcdc"/>
<text fill="black" font-size="30" x="965" y="365">3</text>
<rect rx="13" x="1470" y="55" height="50" width="480" style="fill:#dcdcdc"/>
<text fill="black" font-size="30" x="1710" y="90">4</text>
<rect rx="13" x="1070" y="220" height="50" width="370" style="fill:#dcdcdc"/>
<text fill="black" font-size="30" x="1255" y="255">5</text>
<rect rx="13" x="1610" y="770" height="50" width="150" style="fill:#006400"/>
<text fill="black" font-size="30" x="1685" y="805">6</text>
<rect rx="13" x="0" y="715" height="50" width="240" style="fill:#006400"/>
<text fill="black" font-size="30" x="120" y="750">7</text>
<rect rx="13" x="2000" y="440" height="50" width="80" style="fill:#a52a2a"/>
<text fill="black" font-size="30" x="2040" y="475">8</text>
<rect rx="13" x="290" y="0" height="50" width="310" style="fill:#dcdcdc"/>
<text fill="black" font-size="30" x="445" y="35">9</text>
<rect rx="13" x="1770" y="825" height="50" width="140" style="fill:#006400"/>
<text fill="black" font-size="30" x="1840" y="860">10</text>
<rect rx="13" x="1190" y="770" height="50" width="420" style="fill:#006400"/>
<text fill="black" font-size="30" x="1400" y="805">11</text>
<rect rx="13" x="1550" y="385" height="50" width="440" style="fill:#a52a2a"/>
<text fill="black" font-size="30" x="1770" y="420">12</text>
<rect rx="13" x="650" y="275" height="50" width="220" style="fill:#dcdcdc"/>
<text fill="black" font-size="30" x="760" y="310">13</text>
<rect rx="13" x="250" y="660" height="50" width="280" style="fill:#006400"/>
<text fill="black" font-size="30" x="390" y="695">14</text>
<rect rx="13" x="2690" y="550" height="50" width="330" style="fill:#a52a2a"/>
<text fill="black" font-size="30" x="2855" y="585">15</text>
<rect rx="13" x="1110" y="660" height="50" width="60" style="fill:#006400"/>
<text fill="black" font-size="30" x="1140" y="695">16</text>
<rect rx="13" x="1070" y="330" height="50" width="470" style="fill:#a52a2a"/>
<text fill="black" font-size="30" x="1305" y="365">17</text>
<rect rx="13" x="920" y="605" height="50" width="180" style="fill:#006400"/>
<text fill="black" font-size="30" x="1010" y="640">18</text>
<rect rx="13" x="0" y="0" height="50" width="290" style="fill:#dcdcdc"/>
<text fill="black" font-size="30" x="145" y="35">19</text>
<rect rx="13" x="2090" y="495" height="50" width="590" style="fill:#a52a2a"/>
<text fill="black" font-size="30" x="2385" y="530">20</text>
</svg>
