<?xml version="1.0" standalone="yes"?><!DOCTYPE svg PUBLIC "-//W3C//DTD SVG 20010904//EN" "http://www.w3.org/TR/2001/REC-SVG-20010904/DTD/svg10.dtd">
<svg xmlns="http://www.w3.org/2000/svg">
<line x1="0"  y1="1100" x2="2335" y2="1100" style="stroke:#000000; stroke-width: 6px;"/>
<line x1="640" y1="1100" x2="640"   y2="0" style="stroke:#000000; stroke-width: 2px; stroke-dasharray: 10 5;"/>
<text fill="BLACK" font-size="30" x="640" y="1120">64</text>
<line x1="60" y1="1100" x2="60"   y2="0" style="stroke:#000000; stroke-width: 2px; stroke-dasharray: 10 5;"/>
<text fill="BLACK" font-size="30" x="60" y="1120">6</text>
<line x1="1970" y1="1100" x2="1970"   y2="0" style="stroke:#000000; stroke-width: 2px; stroke-dasharray: 10 5;"/>
<text fill="BLACK" font-size="30" x="1970" y="1120">197</text>
<line x1="1190" y1="1100" x2="1190"   y2="0" style="stroke:#000000; stroke-width: 2px; stroke-dasharray: 10 5;"/>
<text fill="BLACK" font-size="30" x="1190" y="1120">119</text>
<line x1="1370" y1="1100" x2="1370"   y2="0" style="stroke:#000000; stroke-width: 2px; stroke-dasharray: 10 5;"/>
<text fill="BLACK" font-size="30" x="1370" y="1120">137</text>
<line x1="1210" y1="1100" x2="1210"   y2="0" style="stroke:#000000; stroke-width: 2px; stroke-dasharray: 10 5;"/>
<text fill="BLACK" font-size="30" x="1210" y="1120">121</text>
<line x1="910" y1="1100" x2="910"   y2="0" style="stroke:#000000; stroke-width: 2px; stroke-dasharray: 10 5;"/>
<text fill="BLACK" font-size="30" x="910" y="1120">91</text>
<line x1="2050" y1="1100" x2="2050"   y2="0" style="stroke:#000000; stroke-width: 2px; stroke-dasharray: 10 5;"/>
<text fill="BLACK" font-size="30" x="2050" y="1120">205</text>
<line x1="590" y1="1100" x2="590"   y2="0" style="stroke:#000000; stroke-width: 2px; stroke-dasharray: 10 5;"/>
<text fill="BLACK" font-size="30" x="590" y="1120">59</text>
<line x1="1930" y1="1100" x2="1930"   y2="0" style="stroke:#000000; stroke-width: 2px; stroke-dasharray: 10 5;"/>
<text fill="BLACK" font-size="30" x="1930" y="1120">193</text>
<line x1="1780" y1="1100" x2="1780"   y2="0" style="stroke:#000000; stroke-width: 2px; stroke-dasharray: 10 5;"/>
<text fill="BLACK" font-size="30" x="1780" y="1120">178</text>
<line x1="430" y1="1100" x2="430"   y2="0" style="stroke:#000000; stroke-width: 2px; stroke-dasharray: 10 5;"/>
<text fill="BLACK" font-size="30" x="430" y="1120">43</text>
<line x1="20" y1="1100" x2="20"   y2="0" style="stroke:#000000; stroke-width: 2px; stroke-dasharray: 10 5;"/>
<text fill="BLACK" font-size="30" x="20" y="1120">2</text>
<line x1="1110" y1="1100" x2="1110"   y2="0" style="stroke:#000000; stroke-width: 2px; stroke-dasharray: 10 5;"/>
<text fill="BLACK" font-size="30" x="1110" y="1120">111</text>
<line x1="2290" y1="1100" x2="2290"   y2="0" style="stroke:#000000; stroke-width: 2px; stroke-dasharray: 10 5;"/>
<text fill="BLACK" font-size="30" x="2290" y="1120">229</text>
<line x1="690" y1="1100" x2="690"   y2="0" style="stroke:#000000; stroke-width: 2px; stroke-dasharray: 10 5;"/>
<text fill="BLACK" font-size="30" x="690" y="1120">69</text>
<line x1="1760" y1="1100" x2="1760"   y2="0" style="stroke:#000000; stroke-width: 2px; stroke-dasharray: 10 5;"/>
<text fill="BLACK" font-size="30" x="1760" y="1120">176</text>
<line x1="460" y1="1100" x2="460"   y2="0" style="stroke:#000000; stroke-width: 2px; stroke-dasharray: 10 5;"/>
<text fill="BLACK" font-size="30" x="460" y="1120">46</text>
<line x1="1590" y1="1100" x2="1590"   y2="0" style="stroke:#000000; stroke-width: 2px; stroke-dasharray: 10 5;"/>
<text fill="BLACK" font-size="30" x="1590" y="1120">159</text>
<line x1="1960" y1="1100" x2="1960"   y2="0" style="stroke:#000000; stroke-width: 2px; stroke-dasharray: 10 5;"/>
<text fill="BLACK" font-size="30" x="1960" y="1120">196</text>
<rect rx="13" x="440" y="715" height="50" width="200" style="fill:#006400"/>
<text fill="black" font-size="30" x="540" y="750">1</text>
<rect rx="13" x="0" y="715" height="50" width="60" style="fill:#006400"/>
<text fill="black" font-size="30" x="30" y="750">2</text>
<rect rx="13" x="1960" y="770" height="50" width="10" style="fill:#dcdcdc"/>
<text fill="black" font-size="30" x="1965" y="805">3</text>
<rect rx="13" x="670" y="880" height="50" width="520" style="fill:#006400"/>
<text fill="black" font-size="30" x="930" y="915">4</text>
<rect rx="13" x="1140" y="440" height="50" width="230" style="fill:#dcdcdc"/>
<text fill="black" font-size="30" x="1255" y="475">5</text>
<rect rx="13" x="650" y="660" height="50" width="560" style="fill:#a52a2a"/>
<text fill="black" font-size="30" x="930" y="695">6</text>
<rect rx="13" x="700" y="110" height="50" width="210" style="fill:#dcdcdc"/>
<text fill="black" font-size="30" x="805" y="145">7</text>
<rect rx="13" x="1960" y="880" height="50" width="90" style="fill:#a52a2a"/>
<text fill="black" font-size="30" x="2005" y="915">8</text>
<rect rx="13" x="0" y="0" height="50" width="590" style="fill:#dcdcdc"/>
<text fill="black" font-size="30" x="295" y="35">9</text>
<rect rx="13" x="1780" y="715" height="50" width="150" style="fill:#a52a2a"/>
<text fill="black" font-size="30" x="1855" y="750">10</text>
<rect rx="13" x="1220" y="715" height="50" width="560" style="fill:#a52a2a"/>
<text fill="black" font-size="30" x="1500" y="750">11</text>
<rect rx="13" x="70" y="660" height="50" width="360" style="fill:#006400"/>
<text fill="black" font-size="30" x="250" y="695">12</text>
<rect rx="13" x="0" y="330" height="50" width="20" style="fill:#a52a2a"/>
<text fill="black" font-size="30" x="10" y="365">13</text>
<rect rx="13" x="940" y="275" height="50" width="170" style="fill:#dcdcdc"/>
<text fill="black" font-size="30" x="1025" y="310">14</text>
<rect rx="13" x="2060" y="825" height="50" width="230" style="fill:#dcdcdc"/>
<text fill="black" font-size="30" x="2175" y="860">15</text>
<rect rx="13" x="600" y="55" height="50" width="90" style="fill:#dcdcdc"/>
<text fill="black" font-size="30" x="645" y="90">16</text>
<rect rx="13" x="1210" y="990" height="50" width="550" style="fill:#006400"/>
<text fill="black" font-size="30" x="1485" y="1025">17</text>
<rect rx="13" x="60" y="550" height="50" width="400" style="fill:#a52a2a"/>
<text fill="black" font-size="30" x="260" y="585">18</text>
<rect rx="13" x="1380" y="495" height="50" width="210" style="fill:#dcdcdc"/>
<text fill="black" font-size="30" x="1485" y="530">19</text>
<rect rx="13" x="1840" y="1045" height="50" width="120" style="fill:#006400"/>
<text fill="black" font-size="30" x="1900" y="1080">20</text>
</svg>
