<?xml version="1.0" standalone="yes"?><!DOCTYPE svg PUBLIC "-//W3C//DTD SVG 20010904//EN" "http://www.w3.org/TR/2001/REC-SVG-20010904/DTD/svg10.dtd">
<svg xmlns="http://www.w3.org/2000/svg">
<line x1="0"  y1="825" x2="3395" y2="825" style="stroke:#000000; stroke-width: 6px;"/>
<line x1="2360" y1="825" x2="2360"   y2="0" style="stroke:#000000; stroke-width: 2px; stroke-dasharray: 10 5;"/>
<text fill="BLACK" font-size="30" x="2360" y="845">236</text>
<line x1="1810" y1="825" x2="1810"   y2="0" style="stroke:#000000; stroke-width: 2px; stroke-dasharray: 10 5;"/>
<text fill="BLACK" font-size="30" x="1810" y="845">181</text>
<line x1="3350" y1="825" x2="3350"   y2="0" style="stroke:#000000; stroke-width: 2px; stroke-dasharray: 10 5;"/>
<text fill="BLACK" font-size="30" x="3350" y="845">335</text>
<line x1="900" y1="825" x2="900"   y2="0" style="stroke:#000000; stroke-width: 2px; stroke-dasharray: 10 5;"/>
<text fill="BLACK" font-size="30" x="900" y="845">90</text>
<line x1="2400" y1="825" x2="2400"   y2="0" style="stroke:#000000; stroke-width: 2px; stroke-dasharray: 10 5;"/>
<text fill="BLACK" font-size="30" x="2400" y="845">240</text>
<line x1="470" y1="825" x2="470"   y2="0" style="stroke:#000000; stroke-width: 2px; stroke-dasharray: 10 5;"/>
<text fill="BLACK" font-size="30" x="470" y="845">47</text>
<line x1="2720" y1="825" x2="2720"   y2="0" style="stroke:#000000; stroke-width: 2px; stroke-dasharray: 10 5;"/>
<text fill="BLACK" font-size="30" x="2720" y="845">272</text>
<line x1="70" y1="825" x2="70"   y2="0" style="stroke:#000000; stroke-width: 2px; stroke-dasharray: 10 5;"/>
<text fill="BLACK" font-size="30" x="70" y="845">7</text>
<line x1="1830" y1="825" x2="1830"   y2="0" style="stroke:#000000; stroke-width: 2px; stroke-dasharray: 10 5;"/>
<text fill="BLACK" font-size="30" x="1830" y="845">183</text>
<line x1="1670" y1="825" x2="1670"   y2="0" style="stroke:#000000; stroke-width: 2px; stroke-dasharray: 10 5;"/>
<text fill="BLACK" font-size="30" x="1670" y="845">167</text>
<line x1="2820" y1="825" x2="2820"   y2="0" style="stroke:#000000; stroke-width: 2px; stroke-dasharray: 10 5;"/>
<text fill="BLACK" font-size="30" x="2820" y="845">282</text>
<line x1="2440" y1="825" x2="2440"   y2="0" style="stroke:#000000; stroke-width: 2px; stroke-dasharray: 10 5;"/>
<text fill="BLACK" font-size="30" x="2440" y="845">244</text>
<line x1="620" y1="825" x2="620"   y2="0" style="stroke:#000000; stroke-width: 2px; stroke-dasharray: 10 5;"/>
<text fill="BLACK" font-size="30" x="620" y="845">62</text>
<line x1="1050" y1="825" x2="1050"   y2="0" style="stroke:#000000; stroke-width: 2px; stroke-dasharray: 10 5;"/>
<text fill="BLACK" font-size="30" x="1050" y="845">105</text>
<line x1="1360" y1="825" x2="1360"   y2="0" style="stroke:#000000; stroke-width: 2px; stroke-dasharray: 10 5;"/>
<text fill="BLACK" font-size="30" x="1360" y="845">136</text>
<rect rx="13" x="1830" y="220" height="50" width="530" style="fill:#dcdcdc"/>
<text fill="black" font-size="30" x="2095" y="255">1</text>
<rect rx="13" x="1380" y="330" height="50" width="430" style="fill:#dcdcdc"/>
<text fill="black" font-size="30" x="1595" y="365">2</text>
<rect rx="13" x="2820" y="770" height="50" width="530" style="fill:#a52a2a"/>
<text fill="black" font-size="30" x="3085" y="805">3</text>
<rect rx="13" x="660" y="385" height="50" width="240" style="fill:#dcdcdc"/>
<text fill="black" font-size="30" x="780" y="420">4</text>
<rect rx="13" x="1840" y="660" height="50" width="560" style="fill:#a52a2a"/>
<text fill="black" font-size="30" x="2120" y="695">5</text>
<rect rx="13" x="80" y="110" height="50" width="390" style="fill:#dcdcdc"/>
<text fill="black" font-size="30" x="275" y="145">6</text>
<rect rx="13" x="2400" y="165" height="50" width="320" style="fill:#dcdcdc"/>
<text fill="black" font-size="30" x="2560" y="200">7</text>
<rect rx="13" x="10" y="55" height="50" width="60" style="fill:#dcdcdc"/>
<text fill="black" font-size="30" x="40" y="90">8</text>
<rect rx="13" x="1680" y="605" height="50" width="150" style="fill:#a52a2a"/>
<text fill="black" font-size="30" x="1755" y="640">9</text>
<rect rx="13" x="1080" y="550" height="50" width="590" style="fill:#a52a2a"/>
<text fill="black" font-size="30" x="1375" y="585">10</text>
<rect rx="13" x="2450" y="770" height="50" width="370" style="fill:#a52a2a"/>
<text fill="black" font-size="30" x="2635" y="805">11</text>
<rect rx="13" x="2410" y="715" height="50" width="30" style="fill:#a52a2a"/>
<text fill="black" font-size="30" x="2425" y="750">12</text>
<rect rx="13" x="480" y="165" height="50" width="140" style="fill:#dcdcdc"/>
<text fill="black" font-size="30" x="550" y="200">13</text>
<rect rx="13" x="920" y="385" height="50" width="130" style="fill:#a52a2a"/>
<text fill="black" font-size="30" x="985" y="420">14</text>
<rect rx="13" x="1150" y="440" height="50" width="210" style="fill:#dcdcdc"/>
<text fill="black" font-size="30" x="1255" y="475">15</text>
</svg>
