<?xml version="1.0" standalone="yes"?><!DOCTYPE svg PUBLIC "-//W3C//DTD SVG 20010904//EN" "http://www.w3.org/TR/2001/REC-SVG-20010904/DTD/svg10.dtd">
<svg xmlns="http://www.w3.org/2000/svg">
<line x1="0"  y1="825" x2="1985" y2="825" style="stroke:#000000; stroke-width: 6px;"/>
<line x1="320" y1="825" x2="320"   y2="0" style="stroke:#000000; stroke-width: 2px; stroke-dasharray: 10 5;"/>
<text fill="BLACK" font-size="30" x="320" y="845">32</text>
<line x1="1460" y1="825" x2="1460"   y2="0" style="stroke:#000000; stroke-width: 2px; stroke-dasharray: 10 5;"/>
<text fill="BLACK" font-size="30" x="1460" y="845">146</text>
<line x1="170" y1="825" x2="170"   y2="0" style="stroke:#000000; stroke-width: 2px; stroke-dasharray: 10 5;"/>
<text fill="BLACK" font-size="30" x="170" y="845">17</text>
<line x1="1850" y1="825" x2="1850"   y2="0" style="stroke:#000000; stroke-width: 2px; stroke-dasharray: 10 5;"/>
<text fill="BLACK" font-size="30" x="1850" y="845">185</text>
<line x1="1740" y1="825" x2="1740"   y2="0" style="stroke:#000000; stroke-width: 2px; stroke-dasharray: 10 5;"/>
<text fill="BLACK" font-size="30" x="1740" y="845">174</text>
<line x1="1330" y1="825" x2="1330"   y2="0" style="stroke:#000000; stroke-width: 2px; stroke-dasharray: 10 5;"/>
<text fill="BLACK" font-size="30" x="1330" y="845">133</text>
<line x1="200" y1="825" x2="200"   y2="0" style="stroke:#000000; stroke-width: 2px; stroke-dasharray: 10 5;"/>
<text fill="BLACK" font-size="30" x="200" y="845">20</text>
<line x1="1930" y1="825" x2="1930"   y2="0" style="stroke:#000000; stroke-width: 2px; stroke-dasharray: 10 5;"/>
<text fill="BLACK" font-size="30" x="1930" y="845">193</text>
<line x1="770" y1="825" x2="770"   y2="0" style="stroke:#000000; stroke-width: 2px; stroke-dasharray: 10 5;"/>
<text fill="BLACK" font-size="30" x="770" y="845">77</text>
<line x1="550" y1="825" x2="550"   y2="0" style="stroke:#000000; stroke-width: 2px; stroke-dasharray: 10 5;"/>
<text fill="BLACK" font-size="30" x="550" y="845">55</text>
<line x1="910" y1="825" x2="910"   y2="0" style="stroke:#000000; stroke-width: 2px; stroke-dasharray: 10 5;"/>
<text fill="BLACK" font-size="30" x="910" y="845">91</text>
<line x1="120" y1="825" x2="120"   y2="0" style="stroke:#000000; stroke-width: 2px; stroke-dasharray: 10 5;"/>
<text fill="BLACK" font-size="30" x="120" y="845">12</text>
<line x1="890" y1="825" x2="890"   y2="0" style="stroke:#000000; stroke-width: 2px; stroke-dasharray: 10 5;"/>
<text fill="BLACK" font-size="30" x="890" y="845">89</text>
<line x1="790" y1="825" x2="790"   y2="0" style="stroke:#000000; stroke-width: 2px; stroke-dasharray: 10 5;"/>
<text fill="BLACK" font-size="30" x="790" y="845">79</text>
<line x1="890" y1="825" x2="890"   y2="0" style="stroke:#000000; stroke-width: 2px; stroke-dasharray: 10 5;"/>
<text fill="BLACK" font-size="30" x="890" y="845">89</text>
<rect rx="13" x="170" y="0" height="50" width="150" style="fill:#dcdcdc"/>
<text fill="black" font-size="30" x="245" y="35">1</text>
<rect rx="13" x="920" y="330" height="50" width="540" style="fill:#dcdcdc"/>
<text fill="black" font-size="30" x="1190" y="365">2</text>
<rect rx="13" x="0" y="0" height="50" width="170" style="fill:#dcdcdc"/>
<text fill="black" font-size="30" x="85" y="35">3</text>
<rect rx="13" x="1750" y="770" height="50" width="100" style="fill:#a52a2a"/>
<text fill="black" font-size="30" x="1800" y="805">4</text>
<rect rx="13" x="1370" y="715" height="50" width="370" style="fill:#a52a2a"/>
<text fill="black" font-size="30" x="1555" y="750">5</text>
<rect rx="13" x="930" y="495" height="50" width="400" style="fill:#a52a2a"/>
<text fill="black" font-size="30" x="1130" y="530">6</text>
<rect rx="13" x="130" y="220" height="50" width="70" style="fill:#a52a2a"/>
<text fill="black" font-size="30" x="165" y="255">7</text>
<rect rx="13" x="1460" y="330" height="50" width="470" style="fill:#dcdcdc"/>
<text fill="black" font-size="30" x="1695" y="365">8</text>
<rect rx="13" x="560" y="110" height="50" width="210" style="fill:#dcdcdc"/>
<text fill="black" font-size="30" x="665" y="145">9</text>
<rect rx="13" x="330" y="55" height="50" width="220" style="fill:#dcdcdc"/>
<text fill="black" font-size="30" x="440" y="90">10</text>
<rect rx="13" x="890" y="385" height="50" width="20" style="fill:#a52a2a"/>
<text fill="black" font-size="30" x="900" y="420">11</text>
<rect rx="13" x="40" y="165" height="50" width="80" style="fill:#a52a2a"/>
<text fill="black" font-size="30" x="80" y="200">12</text>
<rect rx="13" x="840" y="275" height="50" width="50" style="fill:#dcdcdc"/>
<text fill="black" font-size="30" x="865" y="310">13</text>
<rect rx="13" x="220" y="330" height="50" width="570" style="fill:#a52a2a"/>
<text fill="black" font-size="30" x="505" y="365">14</text>
<rect rx="13" x="800" y="385" height="50" width="90" style="fill:#a52a2a"/>
<text fill="black" font-size="30" x="845" y="420">15</text>
</svg>
