<?xml version="1.0" standalone="yes"?><!DOCTYPE svg PUBLIC "-//W3C//DTD SVG 20010904//EN" "http://www.w3.org/TR/2001/REC-SVG-20010904/DTD/svg10.dtd">
<svg xmlns="http://www.w3.org/2000/svg">
<line x1="0"  y1="825" x2="2265" y2="825" style="stroke:#000000; stroke-width: 6px;"/>
<line x1="320" y1="825" x2="320"   y2="0" style="stroke:#000000; stroke-width: 2px; stroke-dasharray: 10 5;"/>
<text fill="BLACK" font-size="30" x="320" y="845">32</text>
<line x1="1300" y1="825" x2="1300"   y2="0" style="stroke:#000000; stroke-width: 2px; stroke-dasharray: 10 5;"/>
<text fill="BLACK" font-size="30" x="1300" y="845">130</text>
<line x1="170" y1="825" x2="170"   y2="0" style="stroke:#000000; stroke-width: 2px; stroke-dasharray: 10 5;"/>
<text fill="BLACK" font-size="30" x="170" y="845">17</text>
<line x1="1850" y1="825" x2="1850"   y2="0" style="stroke:#000000; stroke-width: 2px; stroke-dasharray: 10 5;"/>
<text fill="BLACK" font-size="30" x="1850" y="845">185</text>
<line x1="1740" y1="825" x2="1740"   y2="0" style="stroke:#000000; stroke-width: 2px; stroke-dasharray: 10 5;"/>
<text fill="BLACK" font-size="30" x="1740" y="845">174</text>
<line x1="2220" y1="825" x2="2220"   y2="0" style="stroke:#000000; stroke-width: 2px; stroke-dasharray: 10 5;"/>
<text fill="BLACK" font-size="30" x="2220" y="845">222</text>
<line x1="940" y1="825" x2="940"   y2="0" style="stroke:#000000; stroke-width: 2px; stroke-dasharray: 10 5;"/>
<text fill="BLACK" font-size="30" x="940" y="845">94</text>
<line x1="1790" y1="825" x2="1790"   y2="0" style="stroke:#000000; stroke-width: 2px; stroke-dasharray: 10 5;"/>
<text fill="BLACK" font-size="30" x="1790" y="845">179</text>
<line x1="770" y1="825" x2="770"   y2="0" style="stroke:#000000; stroke-width: 2px; stroke-dasharray: 10 5;"/>
<text fill="BLACK" font-size="30" x="770" y="845">77</text>
<line x1="550" y1="825" x2="550"   y2="0" style="stroke:#000000; stroke-width: 2px; stroke-dasharray: 10 5;"/>
<text fill="BLACK" font-size="30" x="550" y="845">55</text>
<line x1="110" y1="825" x2="110"   y2="0" style="stroke:#000000; stroke-width: 2px; stroke-dasharray: 10 5;"/>
<text fill="BLACK" font-size="30" x="110" y="845">11</text>
<line x1="860" y1="825" x2="860"   y2="0" style="stroke:#000000; stroke-width: 2px; stroke-dasharray: 10 5;"/>
<text fill="BLACK" font-size="30" x="860" y="845">86</text>
<line x1="180" y1="825" x2="180"   y2="0" style="stroke:#000000; stroke-width: 2px; stroke-dasharray: 10 5;"/>
<text fill="BLACK" font-size="30" x="180" y="845">18</text>
<line x1="760" y1="825" x2="760"   y2="0" style="stroke:#000000; stroke-width: 2px; stroke-dasharray: 10 5;"/>
<text fill="BLACK" font-size="30" x="760" y="845">76</text>
<line x1="90" y1="825" x2="90"   y2="0" style="stroke:#000000; stroke-width: 2px; stroke-dasharray: 10 5;"/>
<text fill="BLACK" font-size="30" x="90" y="845">9</text>
<rect rx="13" x="170" y="0" height="50" width="150" style="fill:#dcdcdc"/>
<text fill="black" font-size="30" x="245" y="35">1</text>
<rect rx="13" x="760" y="330" height="50" width="540" style="fill:#a52a2a"/>
<text fill="black" font-size="30" x="1030" y="365">2</text>
<rect rx="13" x="0" y="0" height="50" width="170" style="fill:#dcdcdc"/>
<text fill="black" font-size="30" x="85" y="35">3</text>
<rect rx="13" x="1750" y="770" height="50" width="100" style="fill:#a52a2a"/>
<text fill="black" font-size="30" x="1800" y="805">4</text>
<rect rx="13" x="1370" y="715" height="50" width="370" style="fill:#a52a2a"/>
<text fill="black" font-size="30" x="1555" y="750">5</text>
<rect rx="13" x="1820" y="495" height="50" width="400" style="fill:#dcdcdc"/>
<text fill="black" font-size="30" x="2020" y="530">6</text>
<rect rx="13" x="870" y="220" height="50" width="70" style="fill:#dcdcdc"/>
<text fill="black" font-size="30" x="905" y="255">7</text>
<rect rx="13" x="1320" y="330" height="50" width="470" style="fill:#dcdcdc"/>
<text fill="black" font-size="30" x="1555" y="365">8</text>
<rect rx="13" x="560" y="110" height="50" width="210" style="fill:#dcdcdc"/>
<text fill="black" font-size="30" x="665" y="145">9</text>
<rect rx="13" x="330" y="55" height="50" width="220" style="fill:#dcdcdc"/>
<text fill="black" font-size="30" x="440" y="90">10</text>
<rect rx="13" x="90" y="385" height="50" width="20" style="fill:#a52a2a"/>
<text fill="black" font-size="30" x="100" y="420">11</text>
<rect rx="13" x="780" y="165" height="50" width="80" style="fill:#dcdcdc"/>
<text fill="black" font-size="30" x="820" y="200">12</text>
<rect rx="13" x="130" y="275" height="50" width="50" style="fill:#a52a2a"/>
<text fill="black" font-size="30" x="155" y="310">13</text>
<rect rx="13" x="190" y="330" height="50" width="570" style="fill:#a52a2a"/>
<text fill="black" font-size="30" x="475" y="365">14</text>
<rect rx="13" x="0" y="385" height="50" width="90" style="fill:#a52a2a"/>
<text fill="black" font-size="30" x="45" y="420">15</text>
</svg>
