/* ------- number of task: 20, Problem no: 33 -------*/
/* {18,2,25,1,{0,0,0,0,0},0}, {9,1,38,1,{0,0,0,0,0},0}, {19,1,26,2,{0,0,0,0,0},0}, {7,2,11,1,{0,0,0,0,0},0}, {12,2,26,2,{0,0,0,0,0},0},
 {8,2,27,1,{0,0,0,0,0},0}, {8,1,55,2,{0,0,0,0,0},0}, {12,1,9,2,{0,0,0,0,0},0}, {14,2,52,2,{0,0,0,0,0},0}, {5,2,29,1,{0,0,0,0,0},0},
 {3,2,3,1,{0,0,0,0,0},0}, {18,1,36,1,{0,0,0,0,0},0}, {10,2,14,2,{0,0,0,0,0},0}, {5,2,34,2,{0,0,0,0,0},0}, {8,2,25,2,{0,0,0,0,0},0},
 {2,1,13,2,{0,0,0,0,0},0}, {7,1,34,2,{0,0,0,0,0},0}, {1,1,52,1,{0,0,0,0,0},0}, {14,1,37,2,{0,0,0,0,0},0}, {20,1,32,1,{0,0,0,0,0},0},

/* ------- number of task: 20, Problem no: 34 -------*/
/* {2,2,54,1,{0,0,0,0,0},0}, {14,2,23,2,{0,0,0,0,0},0}, {14,2,35,1,{0,0,0,0,0},0}, {19,1,30,2,{0,0,0,0,0},0}, {13,1,51,2,{0,0,0,0,0},0},
 {6,2,8,1,{0,0,0,0,0},0}, {7,1,1,2,{0,0,0,0,0},0}, {20,1,51,1,{0,0,0,0,0},0}, {12,2,31,2,{0,0,0,0,0},0}, {4,2,59,2,{0,0,0,0,0},0},
 {16,2,54,1,{0,0,0,0,0},0}, {9,2,34,2,{0,0,0,0,0},0}, {11,1,22,2,{0,0,0,0,0},0}, {6,2,30,2,{0,0,0,0,0},0}, {15,2,39,2,{0,0,0,0,0},0},
 {19,1,44,1,{0,0,0,0,0},0}, {9,1,24,2,{0,0,0,0,0},0}, {8,2,32,1,{0,0,0,0,0},0}, {2,2,46,2,{0,0,0,0,0},0}, {11,2,23,2,{0,0,0,0,0},0},

/* ------- number of task: 20, Problem no: 35 -------*/
/* {3,2,13,2,{0,0,0,0,0},0}, {2,1,47,1,{0,0,0,0,0},0}, {15,1,10,1,{0,0,0,0,0},0}, {19,2,36,2,{0,0,0,0,0},0}, {2,2,9,2,{0,0,0,0,0},0},
 {15,1,45,2,{0,0,0,0,0},0}, {18,1,45,2,{0,0,0,0,0},0}, {10,2,4,1,{0,0,0,0,0},0}, {11,2,51,2,{0,0,0,0,0},0}, {19,2,55,1,{0,0,0,0,0},0},
 {5,2,56,2,{0,0,0,0,0},0}, {6,2,18,1,{0,0,0,0,0},0}, {4,1,49,1,{0,0,0,0,0},0}, {9,2,33,2,{0,0,0,0,0},0}, {14,1,37,1,{0,0,0,0,0},0},
 {7,1,10,1,{0,0,0,0,0},0}, {1,1,44,2,{0,0,0,0,0},0}, {12,2,20,2,{0,0,0,0,0},0}, {6,2,17,2,{0,0,0,0,0},0}, {5,1,55,2,{0,0,0,0,0},0},

/* ------- number of task: 20, Problem no: 36 -------*/
/* {10,1,34,2,{0,0,0,0,0},0}, {10,2,29,1,{0,0,0,0,0},0}, {19,2,47,1,{0,0,0,0,0},0}, {11,1,20,1,{0,0,0,0,0},0}, {12,2,35,1,{0,0,0,0,0},0},
 {5,1,21,2,{0,0,0,0,0},0}, {15,1,23,2,{0,0,0,0,0},0}, {8,2,46,2,{0,0,0,0,0},0}, {16,1,24,1,{0,0,0,0,0},0}, {15,2,33,1,{0,0,0,0,0},0},
 {20,1,43,1,{0,0,0,0,0},0}, {8,1,49,2,{0,0,0,0,0},0}, {4,2,45,1,{0,0,0,0,0},0}, {7,2,6,1,{0,0,0,0,0},0}, {7,1,28,1,{0,0,0,0,0},0},
 {13,2,17,1,{0,0,0,0,0},0}, {15,2,44,2,{0,0,0,0,0},0}, {3,2,24,1,{0,0,0,0,0},0}, {9,2,59,1,{0,0,0,0,0},0}, {17,1,23,2,{0,0,0,0,0},0},

/* ------- number of task: 20, Problem no: 37 -------*/
/* {17,1,5,2,{0,0,0,0,0},0}, {7,2,4,2,{0,0,0,0,0},0}, {15,2,49,1,{0,0,0,0,0},0}, {12,1,29,2,{0,0,0,0,0},0}, {8,1,18,2,{0,0,0,0,0},0},
 {13,2,9,2,{0,0,0,0,0},0}, {6,1,59,2,{0,0,0,0,0},0}, {18,2,2,2,{0,0,0,0,0},0}, {11,1,11,2,{0,0,0,0,0},0}, {10,1,30,1,{0,0,0,0,0},0},
 {2,2,14,2,{0,0,0,0,0},0}, {14,1,33,1,{0,0,0,0,0},0}, {11,2,18,1,{0,0,0,0,0},0}, {18,1,25,1,{0,0,0,0,0},0}, {2,1,18,2,{0,0,0,0,0},0},
 {4,2,10,2,{0,0,0,0,0},0}, {8,1,43,1,{0,0,0,0,0},0}, {19,1,51,2,{0,0,0,0,0},0}, {9,2,14,1,{0,0,0,0,0},0}, {1,2,43,1,{0,0,0,0,0},0},

/* ------- number of task: 20, Problem no: 38 -------*/
/* {11,1,15,1,{0,0,0,0,0},0}, {2,1,48,2,{0,0,0,0,0},0}, {6,1,18,2,{0,0,0,0,0},0}, {19,2,57,2,{0,0,0,0,0},0}, {8,1,56,2,{0,0,0,0,0},0},
 {6,2,7,1,{0,0,0,0,0},0}, {14,1,9,1,{0,0,0,0,0},0}, {9,1,21,2,{0,0,0,0,0},0}, {7,2,20,1,{0,0,0,0,0},0}, {18,1,9,1,{0,0,0,0,0},0},
 {13,2,15,1,{0,0,0,0,0},0}, {5,2,50,2,{0,0,0,0,0},0}, {16,2,21,2,{0,0,0,0,0},0}, {13,1,52,2,{0,0,0,0,0},0}, {15,2,21,2,{0,0,0,0,0},0},
 {15,1,60,2,{0,0,0,0,0},0}, {1,1,25,2,{0,0,0,0,0},0}, {1,2,26,2,{0,0,0,0,0},0}, {4,1,14,1,{0,0,0,0,0},0}, {11,2,40,1,{0,0,0,0,0},0},

/* ------- number of task: 20, Problem no: 39 -------*/
/* {12,2,34,2,{0,0,0,0,0},0}, {1,2,17,1,{0,0,0,0,0},0}, {11,1,60,1,{0,0,0,0,0},0}, {19,2,30,2,{0,0,0,0,0},0}, {5,1,9,1,{0,0,0,0,0},0},
 {8,1,24,2,{0,0,0,0,0},0}, {11,2,15,1,{0,0,0,0,0},0}, {3,2,22,2,{0,0,0,0,0},0}, {17,1,4,2,{0,0,0,0,0},0}, {17,1,42,1,{0,0,0,0,0},0},
 {15,2,17,1,{0,0,0,0,0},0}, {20,1,19,1,{0,0,0,0,0},0}, {13,2,41,1,{0,0,0,0,0},0}, {18,1,2,1,{0,0,0,0,0},0}, {16,1,19,1,{0,0,0,0,0},0},
 {19,2,38,1,{0,0,0,0,0},0}, {11,2,22,2,{0,0,0,0,0},0}, {14,2,26,1,{0,0,0,0,0},0}, {14,1,24,1,{0,0,0,0,0},0}, {10,1,16,1,{0,0,0,0,0},0},

/* ------- number of task: 20, Problem no: 40 -------*/
/* {12,2,29,1,{0,0,0,0,0},0}, {12,1,7,1,{0,0,0,0,0},0}, {18,2,37,2,{0,0,0,0,0},0}, {15,2,53,2,{0,0,0,0,0},0}, {7,2,36,2,{0,0,0,0,0},0},
 {10,2,13,1,{0,0,0,0,0},0}, {17,2,27,2,{0,0,0,0,0},0}, {3,2,55,2,{0,0,0,0,0},0}, {1,2,6,2,{0,0,0,0,0},0}, {14,2,19,1,{0,0,0,0,0},0},
 {19,1,28,2,{0,0,0,0,0},0}, {6,1,50,2,{0,0,0,0,0},0}, {11,2,6,2,{0,0,0,0,0},0}, {15,1,13,2,{0,0,0,0,0},0}, {17,2,23,1,{0,0,0,0,0},0},
 {8,2,22,2,{0,0,0,0,0},0}, {19,2,29,2,{0,0,0,0,0},0}, {7,1,10,2,{0,0,0,0,0},0}, {3,1,36,1,{0,0,0,0,0},0}, {9,1,34,1,{0,0,0,0,0},0},

/* ------- number of task: 20, Problem no: 41 -------*/
/* {18,1,2,2,{0,0,0,0,0},0}, {12,1,38,2,{0,0,0,0,0},0}, {7,1,17,2,{0,0,0,0,0},0}, {2,2,48,2,{0,0,0,0,0},0}, {5,1,37,2,{0,0,0,0,0},0},
 {15,2,15,1,{0,0,0,0,0},0}, {14,1,24,2,{0,0,0,0,0},0}, {9,2,8,1,{0,0,0,0,0},0}, {1,1,31,1,{0,0,0,0,0},0}, {16,2,14,1,{0,0,0,0,0},0},
 {15,1,42,2,{0,0,0,0,0},0}, {8,2,44,1,{0,0,0,0,0},0}, {6,1,22,2,{0,0,0,0,0},0}, {13,1,28,2,{0,0,0,0,0},0}, {11,2,33,2,{0,0,0,0,0},0},
 {13,2,6,1,{0,0,0,0,0},0}, {7,1,47,1,{0,0,0,0,0},0}, {12,1,18,1,{0,0,0,0,0},0}, {1,1,29,2,{0,0,0,0,0},0}, {10,1,59,2,{0,0,0,0,0},0},

/* ------- number of task: 20, Problem no: 42 -------*/
/* {14,2,20,2,{0,0,0,0,0},0}, {14,1,6,2,{0,0,0,0,0},0}, {15,1,1,2,{0,0,0,0,0},0}, {17,2,52,2,{0,0,0,0,0},0}, {9,2,23,1,{0,0,0,0,0},0},
 {13,2,56,1,{0,0,0,0,0},0}, {3,2,21,1,{0,0,0,0,0},0}, {17,2,9,1,{0,0,0,0,0},0}, {1,1,59,1,{0,0,0,0,0},0}, {14,1,15,1,{0,0,0,0,0},0},
 {14,2,56,1,{0,0,0,0,0},0}, {13,1,36,2,{0,0,0,0,0},0}, {7,2,2,1,{0,0,0,0,0},0}, {6,2,17,1,{0,0,0,0,0},0}, {16,1,23,2,{0,0,0,0,0},0},
 {2,1,9,1,{0,0,0,0,0},0}, {19,1,55,2,{0,0,0,0,0},0}, {11,1,40,2,{0,0,0,0,0},0}, {10,2,21,2,{0,0,0,0,0},0}, {20,2,12,2,{0,0,0,0,0},0},

