<?xml version="1.0" standalone="yes"?><!DOCTYPE svg PUBLIC "-//W3C//DTD SVG 20010904//EN" "http://www.w3.org/TR/2001/REC-SVG-20010904/DTD/svg10.dtd">
<svg xmlns="http://www.w3.org/2000/svg">
<line x1="0"  y1="550" x2="1855" y2="550" style="stroke:#000000; stroke-width: 6px;"/>
<line x1="1250" y1="550" x2="1250"   y2="0" style="stroke:#000000; stroke-width: 2px; stroke-dasharray: 10 5;"/>
<text fill="BLACK" font-size="30" x="1250" y="570">125</text>
<line x1="1360" y1="550" x2="1360"   y2="0" style="stroke:#000000; stroke-width: 2px; stroke-dasharray: 10 5;"/>
<text fill="BLACK" font-size="30" x="1360" y="570">136</text>
<line x1="510" y1="550" x2="510"   y2="0" style="stroke:#000000; stroke-width: 2px; stroke-dasharray: 10 5;"/>
<text fill="BLACK" font-size="30" x="510" y="570">51</text>
<line x1="1810" y1="550" x2="1810"   y2="0" style="stroke:#000000; stroke-width: 2px; stroke-dasharray: 10 5;"/>
<text fill="BLACK" font-size="30" x="1810" y="570">181</text>
<line x1="550" y1="550" x2="550"   y2="0" style="stroke:#000000; stroke-width: 2px; stroke-dasharray: 10 5;"/>
<text fill="BLACK" font-size="30" x="550" y="570">55</text>
<line x1="1090" y1="550" x2="1090"   y2="0" style="stroke:#000000; stroke-width: 2px; stroke-dasharray: 10 5;"/>
<text fill="BLACK" font-size="30" x="1090" y="570">109</text>
<line x1="1760" y1="550" x2="1760"   y2="0" style="stroke:#000000; stroke-width: 2px; stroke-dasharray: 10 5;"/>
<text fill="BLACK" font-size="30" x="1760" y="570">176</text>
<line x1="920" y1="550" x2="920"   y2="0" style="stroke:#000000; stroke-width: 2px; stroke-dasharray: 10 5;"/>
<text fill="BLACK" font-size="30" x="920" y="570">92</text>
<line x1="780" y1="550" x2="780"   y2="0" style="stroke:#000000; stroke-width: 2px; stroke-dasharray: 10 5;"/>
<text fill="BLACK" font-size="30" x="780" y="570">78</text>
<line x1="490" y1="550" x2="490"   y2="0" style="stroke:#000000; stroke-width: 2px; stroke-dasharray: 10 5;"/>
<text fill="BLACK" font-size="30" x="490" y="570">49</text>
<rect rx="13" x="920" y="55" height="50" width="330" style="fill:#dcdcdc"/>
<text fill="black" font-size="30" x="1085" y="90">1</text>
<rect rx="13" x="1130" y="275" height="50" width="230" style="fill:#a52a2a"/>
<text fill="black" font-size="30" x="1245" y="310">2</text>
<rect rx="13" x="10" y="330" height="50" width="500" style="fill:#a52a2a"/>
<text fill="black" font-size="30" x="260" y="365">3</text>
<rect rx="13" x="1390" y="110" height="50" width="420" style="fill:#a52a2a"/>
<text fill="black" font-size="30" x="1600" y="145">4</text>
<rect rx="13" x="530" y="440" height="50" width="20" style="fill:#a52a2a"/>
<text fill="black" font-size="30" x="540" y="475">5</text>
<rect rx="13" x="560" y="495" height="50" width="530" style="fill:#a52a2a"/>
<text fill="black" font-size="30" x="825" y="530">6</text>
<rect rx="13" x="1260" y="0" height="50" width="500" style="fill:#dcdcdc"/>
<text fill="black" font-size="30" x="1510" y="35">7</text>
<rect rx="13" x="820" y="55" height="50" width="100" style="fill:#dcdcdc"/>
<text fill="black" font-size="30" x="870" y="90">8</text>
<rect rx="13" x="520" y="275" height="50" width="260" style="fill:#dcdcdc"/>
<text fill="black" font-size="30" x="650" y="310">9</text>
<rect rx="13" x="20" y="110" height="50" width="470" style="fill:#dcdcdc"/>
<text fill="black" font-size="30" x="255" y="145">10</text>
</svg>
