<?xml version="1.0" standalone="yes"?><!DOCTYPE svg PUBLIC "-//W3C//DTD SVG 20010904//EN" "http://www.w3.org/TR/2001/REC-SVG-20010904/DTD/svg10.dtd">
<svg xmlns="http://www.w3.org/2000/svg">
<line x1="0"  y1="550" x2="1605" y2="550" style="stroke:#000000; stroke-width: 6px;"/>
<line x1="930" y1="550" x2="930"   y2="0" style="stroke:#000000; stroke-width: 2px; stroke-dasharray: 10 5;"/>
<text fill="BLACK" font-size="30" x="930" y="570">93</text>
<line x1="360" y1="550" x2="360"   y2="0" style="stroke:#000000; stroke-width: 2px; stroke-dasharray: 10 5;"/>
<text fill="BLACK" font-size="30" x="360" y="570">36</text>
<line x1="620" y1="550" x2="620"   y2="0" style="stroke:#000000; stroke-width: 2px; stroke-dasharray: 10 5;"/>
<text fill="BLACK" font-size="30" x="620" y="570">62</text>
<line x1="240" y1="550" x2="240"   y2="0" style="stroke:#000000; stroke-width: 2px; stroke-dasharray: 10 5;"/>
<text fill="BLACK" font-size="30" x="240" y="570">24</text>
<line x1="270" y1="550" x2="270"   y2="0" style="stroke:#000000; stroke-width: 2px; stroke-dasharray: 10 5;"/>
<text fill="BLACK" font-size="30" x="270" y="570">27</text>
<line x1="1550" y1="550" x2="1550"   y2="0" style="stroke:#000000; stroke-width: 2px; stroke-dasharray: 10 5;"/>
<text fill="BLACK" font-size="30" x="1550" y="570">155</text>
<line x1="1140" y1="550" x2="1140"   y2="0" style="stroke:#000000; stroke-width: 2px; stroke-dasharray: 10 5;"/>
<text fill="BLACK" font-size="30" x="1140" y="570">114</text>
<line x1="1260" y1="550" x2="1260"   y2="0" style="stroke:#000000; stroke-width: 2px; stroke-dasharray: 10 5;"/>
<text fill="BLACK" font-size="30" x="1260" y="570">126</text>
<line x1="1520" y1="550" x2="1520"   y2="0" style="stroke:#000000; stroke-width: 2px; stroke-dasharray: 10 5;"/>
<text fill="BLACK" font-size="30" x="1520" y="570">152</text>
<line x1="1190" y1="550" x2="1190"   y2="0" style="stroke:#000000; stroke-width: 2px; stroke-dasharray: 10 5;"/>
<text fill="BLACK" font-size="30" x="1190" y="570">119</text>
<rect rx="13" x="370" y="330" height="50" width="560" style="fill:#a52a2a"/>
<text fill="black" font-size="30" x="650" y="365">1</text>
<rect rx="13" x="270" y="275" height="50" width="90" style="fill:#a52a2a"/>
<text fill="black" font-size="30" x="315" y="310">2</text>
<rect rx="13" x="250" y="110" height="50" width="370" style="fill:#dcdcdc"/>
<text fill="black" font-size="30" x="435" y="145">3</text>
<rect rx="13" x="10" y="55" height="50" width="230" style="fill:#dcdcdc"/>
<text fill="black" font-size="30" x="125" y="90">4</text>
<rect rx="13" x="0" y="275" height="50" width="270" style="fill:#a52a2a"/>
<text fill="black" font-size="30" x="135" y="310">5</text>
<rect rx="13" x="1150" y="220" height="50" width="400" style="fill:#dcdcdc"/>
<text fill="black" font-size="30" x="1350" y="255">6</text>
<rect rx="13" x="630" y="165" height="50" width="510" style="fill:#dcdcdc"/>
<text fill="black" font-size="30" x="885" y="200">7</text>
<rect rx="13" x="1200" y="440" height="50" width="60" style="fill:#a52a2a"/>
<text fill="black" font-size="30" x="1230" y="475">8</text>
<rect rx="13" x="1260" y="440" height="50" width="260" style="fill:#a52a2a"/>
<text fill="black" font-size="30" x="1390" y="475">9</text>
<rect rx="13" x="940" y="385" height="50" width="250" style="fill:#a52a2a"/>
<text fill="black" font-size="30" x="1065" y="420">10</text>
</svg>
