<?xml version="1.0" standalone="yes"?><!DOCTYPE svg PUBLIC "-//W3C//DTD SVG 20010904//EN" "http://www.w3.org/TR/2001/REC-SVG-20010904/DTD/svg10.dtd">
<svg xmlns="http://www.w3.org/2000/svg">
<line x1="0"  y1="550" x2="1845" y2="550" style="stroke:#000000; stroke-width: 6px;"/>
<line x1="1010" y1="550" x2="1010"   y2="0" style="stroke:#000000; stroke-width: 2px; stroke-dasharray: 10 5;"/>
<text fill="BLACK" font-size="30" x="1010" y="570">101</text>
<line x1="400" y1="550" x2="400"   y2="0" style="stroke:#000000; stroke-width: 2px; stroke-dasharray: 10 5;"/>
<text fill="BLACK" font-size="30" x="400" y="570">40</text>
<line x1="1800" y1="550" x2="1800"   y2="0" style="stroke:#000000; stroke-width: 2px; stroke-dasharray: 10 5;"/>
<text fill="BLACK" font-size="30" x="1800" y="570">180</text>
<line x1="1800" y1="550" x2="1800"   y2="0" style="stroke:#000000; stroke-width: 2px; stroke-dasharray: 10 5;"/>
<text fill="BLACK" font-size="30" x="1800" y="570">180</text>
<line x1="490" y1="550" x2="490"   y2="0" style="stroke:#000000; stroke-width: 2px; stroke-dasharray: 10 5;"/>
<text fill="BLACK" font-size="30" x="490" y="570">49</text>
<line x1="950" y1="550" x2="950"   y2="0" style="stroke:#000000; stroke-width: 2px; stroke-dasharray: 10 5;"/>
<text fill="BLACK" font-size="30" x="950" y="570">95</text>
<line x1="1740" y1="550" x2="1740"   y2="0" style="stroke:#000000; stroke-width: 2px; stroke-dasharray: 10 5;"/>
<text fill="BLACK" font-size="30" x="1740" y="570">174</text>
<line x1="1400" y1="550" x2="1400"   y2="0" style="stroke:#000000; stroke-width: 2px; stroke-dasharray: 10 5;"/>
<text fill="BLACK" font-size="30" x="1400" y="570">140</text>
<line x1="340" y1="550" x2="340"   y2="0" style="stroke:#000000; stroke-width: 2px; stroke-dasharray: 10 5;"/>
<text fill="BLACK" font-size="30" x="340" y="570">34</text>
<line x1="1230" y1="550" x2="1230"   y2="0" style="stroke:#000000; stroke-width: 2px; stroke-dasharray: 10 5;"/>
<text fill="BLACK" font-size="30" x="1230" y="570">123</text>
<rect rx="13" x="410" y="220" height="50" width="600" style="fill:#a52a2a"/>
<text fill="black" font-size="30" x="710" y="255">1</text>
<rect rx="13" x="20" y="165" height="50" width="380" style="fill:#a52a2a"/>
<text fill="black" font-size="30" x="210" y="200">2</text>
<rect rx="13" x="1290" y="440" height="50" width="510" style="fill:#a52a2a"/>
<text fill="black" font-size="30" x="1545" y="475">3</text>
<rect rx="13" x="1740" y="165" height="50" width="60" style="fill:#dcdcdc"/>
<text fill="black" font-size="30" x="1770" y="200">4</text>
<rect rx="13" x="410" y="110" height="50" width="80" style="fill:#dcdcdc"/>
<text fill="black" font-size="30" x="450" y="145">5</text>
<rect rx="13" x="490" y="110" height="50" width="460" style="fill:#dcdcdc"/>
<text fill="black" font-size="30" x="720" y="145">6</text>
<rect rx="13" x="1410" y="165" height="50" width="330" style="fill:#dcdcdc"/>
<text fill="black" font-size="30" x="1575" y="200">7</text>
<rect rx="13" x="950" y="110" height="50" width="450" style="fill:#dcdcdc"/>
<text fill="black" font-size="30" x="1175" y="145">8</text>
<rect rx="13" x="0" y="0" height="50" width="340" style="fill:#dcdcdc"/>
<text fill="black" font-size="30" x="170" y="35">9</text>
<rect rx="13" x="1020" y="275" height="50" width="210" style="fill:#a52a2a"/>
<text fill="black" font-size="30" x="1125" y="310">10</text>
</svg>
