<?xml version="1.0" standalone="yes"?><!DOCTYPE svg PUBLIC "-//W3C//DTD SVG 20010904//EN" "http://www.w3.org/TR/2001/REC-SVG-20010904/DTD/svg10.dtd">
<svg xmlns="http://www.w3.org/2000/svg">
<line x1="0"  y1="1375" x2="3845" y2="1375" style="stroke:#000000; stroke-width: 6px;"/>
<line x1="710" y1="1375" x2="710"   y2="0" style="stroke:#000000; stroke-width: 2px; stroke-dasharray: 10 5;"/>
<text fill="BLACK" font-size="30" x="710" y="1395">71</text>
<line x1="2720" y1="1375" x2="2720"   y2="0" style="stroke:#000000; stroke-width: 2px; stroke-dasharray: 10 5;"/>
<text fill="BLACK" font-size="30" x="2720" y="1395">272</text>
<line x1="1440" y1="1375" x2="1440"   y2="0" style="stroke:#000000; stroke-width: 2px; stroke-dasharray: 10 5;"/>
<text fill="BLACK" font-size="30" x="1440" y="1395">144</text>
<line x1="1050" y1="1375" x2="1050"   y2="0" style="stroke:#000000; stroke-width: 2px; stroke-dasharray: 10 5;"/>
<text fill="BLACK" font-size="30" x="1050" y="1395">105</text>
<line x1="3800" y1="1375" x2="3800"   y2="0" style="stroke:#000000; stroke-width: 2px; stroke-dasharray: 10 5;"/>
<text fill="BLACK" font-size="30" x="3800" y="1395">380</text>
<line x1="2120" y1="1375" x2="2120"   y2="0" style="stroke:#000000; stroke-width: 2px; stroke-dasharray: 10 5;"/>
<text fill="BLACK" font-size="30" x="2120" y="1395">212</text>
<line x1="550" y1="1375" x2="550"   y2="0" style="stroke:#000000; stroke-width: 2px; stroke-dasharray: 10 5;"/>
<text fill="BLACK" font-size="30" x="550" y="1395">55</text>
<line x1="790" y1="1375" x2="790"   y2="0" style="stroke:#000000; stroke-width: 2px; stroke-dasharray: 10 5;"/>
<text fill="BLACK" font-size="30" x="790" y="1395">79</text>
<line x1="710" y1="1375" x2="710"   y2="0" style="stroke:#000000; stroke-width: 2px; stroke-dasharray: 10 5;"/>
<text fill="BLACK" font-size="30" x="710" y="1395">71</text>
<line x1="230" y1="1375" x2="230"   y2="0" style="stroke:#000000; stroke-width: 2px; stroke-dasharray: 10 5;"/>
<text fill="BLACK" font-size="30" x="230" y="1395">23</text>
<line x1="1770" y1="1375" x2="1770"   y2="0" style="stroke:#000000; stroke-width: 2px; stroke-dasharray: 10 5;"/>
<text fill="BLACK" font-size="30" x="1770" y="1395">177</text>
<line x1="820" y1="1375" x2="820"   y2="0" style="stroke:#000000; stroke-width: 2px; stroke-dasharray: 10 5;"/>
<text fill="BLACK" font-size="30" x="820" y="1395">82</text>
<line x1="2730" y1="1375" x2="2730"   y2="0" style="stroke:#000000; stroke-width: 2px; stroke-dasharray: 10 5;"/>
<text fill="BLACK" font-size="30" x="2730" y="1395">273</text>
<line x1="3150" y1="1375" x2="3150"   y2="0" style="stroke:#000000; stroke-width: 2px; stroke-dasharray: 10 5;"/>
<text fill="BLACK" font-size="30" x="3150" y="1395">315</text>
<line x1="2040" y1="1375" x2="2040"   y2="0" style="stroke:#000000; stroke-width: 2px; stroke-dasharray: 10 5;"/>
<text fill="BLACK" font-size="30" x="2040" y="1395">204</text>
<line x1="3600" y1="1375" x2="3600"   y2="0" style="stroke:#000000; stroke-width: 2px; stroke-dasharray: 10 5;"/>
<text fill="BLACK" font-size="30" x="3600" y="1395">360</text>
<line x1="1860" y1="1375" x2="1860"   y2="0" style="stroke:#000000; stroke-width: 2px; stroke-dasharray: 10 5;"/>
<text fill="BLACK" font-size="30" x="1860" y="1395">186</text>
<line x1="2360" y1="1375" x2="2360"   y2="0" style="stroke:#000000; stroke-width: 2px; stroke-dasharray: 10 5;"/>
<text fill="BLACK" font-size="30" x="2360" y="1395">236</text>
<line x1="630" y1="1375" x2="630"   y2="0" style="stroke:#000000; stroke-width: 2px; stroke-dasharray: 10 5;"/>
<text fill="BLACK" font-size="30" x="630" y="1395">63</text>
<line x1="680" y1="1375" x2="680"   y2="0" style="stroke:#000000; stroke-width: 2px; stroke-dasharray: 10 5;"/>
<text fill="BLACK" font-size="30" x="680" y="1395">68</text>
<line x1="2620" y1="1375" x2="2620"   y2="0" style="stroke:#000000; stroke-width: 2px; stroke-dasharray: 10 5;"/>
<text fill="BLACK" font-size="30" x="2620" y="1395">262</text>
<line x1="1590" y1="1375" x2="1590"   y2="0" style="stroke:#000000; stroke-width: 2px; stroke-dasharray: 10 5;"/>
<text fill="BLACK" font-size="30" x="1590" y="1395">159</text>
<line x1="1730" y1="1375" x2="1730"   y2="0" style="stroke:#000000; stroke-width: 2px; stroke-dasharray: 10 5;"/>
<text fill="BLACK" font-size="30" x="1730" y="1395">173</text>
<line x1="1240" y1="1375" x2="1240"   y2="0" style="stroke:#000000; stroke-width: 2px; stroke-dasharray: 10 5;"/>
<text fill="BLACK" font-size="30" x="1240" y="1395">124</text>
<line x1="1570" y1="1375" x2="1570"   y2="0" style="stroke:#000000; stroke-width: 2px; stroke-dasharray: 10 5;"/>
<text fill="BLACK" font-size="30" x="1570" y="1395">157</text>
<rect rx="13" x="690" y="990" height="50" width="20" style="fill:#006400"/>
<text fill="black" font-size="30" x="700" y="1025">1</text>
<rect rx="13" x="2120" y="165" height="50" width="600" style="fill:#dcdcdc"/>
<text fill="black" font-size="30" x="2420" y="200">2</text>
<rect rx="13" x="1250" y="1100" height="50" width="190" style="fill:#006400"/>
<text fill="black" font-size="30" x="1345" y="1135">3</text>
<rect rx="13" x="830" y="440" height="50" width="220" style="fill:#dcdcdc"/>
<text fill="black" font-size="30" x="940" y="475">4</text>
<rect rx="13" x="3610" y="990" height="50" width="190" style="fill:#a52a2a"/>
<text fill="black" font-size="30" x="3705" y="1025">5</text>
<rect rx="13" x="1730" y="165" height="50" width="390" style="fill:#dcdcdc"/>
<text fill="black" font-size="30" x="1925" y="200">6</text>
<rect rx="13" x="0" y="880" height="50" width="550" style="fill:#006400"/>
<text fill="black" font-size="30" x="275" y="915">7</text>
<rect rx="13" x="710" y="990" height="50" width="80" style="fill:#006400"/>
<text fill="black" font-size="30" x="750" y="1025">8</text>
<rect rx="13" x="640" y="110" height="50" width="70" style="fill:#dcdcdc"/>
<text fill="black" font-size="30" x="675" y="145">9</text>
<rect rx="13" x="0" y="0" height="50" width="230" style="fill:#dcdcdc"/>
<text fill="black" font-size="30" x="115" y="35">10</text>
<rect rx="13" x="1590" y="550" height="50" width="180" style="fill:#a52a2a"/>
<text fill="black" font-size="30" x="1680" y="585">11</text>
<rect rx="13" x="760" y="385" height="50" width="60" style="fill:#dcdcdc"/>
<text fill="black" font-size="30" x="790" y="420">12</text>
<rect rx="13" x="2370" y="1320" height="50" width="360" style="fill:#006400"/>
<text fill="black" font-size="30" x="2550" y="1355">13</text>
<rect rx="13" x="2660" y="880" height="50" width="490" style="fill:#a52a2a"/>
<text fill="black" font-size="30" x="2905" y="915">14</text>
<rect rx="13" x="1780" y="605" height="50" width="260" style="fill:#a52a2a"/>
<text fill="black" font-size="30" x="1910" y="640">15</text>
<rect rx="13" x="3160" y="935" height="50" width="440" style="fill:#a52a2a"/>
<text fill="black" font-size="30" x="3380" y="970">16</text>
<rect rx="13" x="1460" y="1210" height="50" width="400" style="fill:#006400"/>
<text fill="black" font-size="30" x="1660" y="1245">17</text>
<rect rx="13" x="1870" y="1265" height="50" width="490" style="fill:#006400"/>
<text fill="black" font-size="30" x="2115" y="1300">18</text>
<rect rx="13" x="240" y="55" height="50" width="390" style="fill:#dcdcdc"/>
<text fill="black" font-size="30" x="435" y="90">19</text>
<rect rx="13" x="560" y="935" height="50" width="120" style="fill:#006400"/>
<text fill="black" font-size="30" x="620" y="970">20</text>
<rect rx="13" x="2050" y="660" height="50" width="570" style="fill:#a52a2a"/>
<text fill="black" font-size="30" x="2335" y="695">21</text>
<rect rx="13" x="1070" y="330" height="50" width="520" style="fill:#dcdcdc"/>
<text fill="black" font-size="30" x="1330" y="365">22</text>
<rect rx="13" x="1620" y="165" height="50" width="110" style="fill:#dcdcdc"/>
<text fill="black" font-size="30" x="1675" y="200">23</text>
<rect rx="13" x="800" y="1045" height="50" width="440" style="fill:#006400"/>
<text fill="black" font-size="30" x="1020" y="1080">24</text>
<rect rx="13" x="1070" y="440" height="50" width="500" style="fill:#a52a2a"/>
<text fill="black" font-size="30" x="1320" y="475">25</text>
</svg>
