<?xml version="1.0" standalone="yes"?><!DOCTYPE svg PUBLIC "-//W3C//DTD SVG 20010904//EN" "http://www.w3.org/TR/2001/REC-SVG-20010904/DTD/svg10.dtd">
<svg xmlns="http://www.w3.org/2000/svg">
<line x1="0"  y1="1375" x2="5695" y2="1375" style="stroke:#000000; stroke-width: 6px;"/>
<line x1="3340" y1="1375" x2="3340"   y2="0" style="stroke:#000000; stroke-width: 2px; stroke-dasharray: 10 5;"/>
<text fill="BLACK" font-size="30" x="3340" y="1395">334</text>
<line x1="4520" y1="1375" x2="4520"   y2="0" style="stroke:#000000; stroke-width: 2px; stroke-dasharray: 10 5;"/>
<text fill="BLACK" font-size="30" x="4520" y="1395">452</text>
<line x1="80" y1="1375" x2="80"   y2="0" style="stroke:#000000; stroke-width: 2px; stroke-dasharray: 10 5;"/>
<text fill="BLACK" font-size="30" x="80" y="1395">8</text>
<line x1="5110" y1="1375" x2="5110"   y2="0" style="stroke:#000000; stroke-width: 2px; stroke-dasharray: 10 5;"/>
<text fill="BLACK" font-size="30" x="5110" y="1395">511</text>
<line x1="510" y1="1375" x2="510"   y2="0" style="stroke:#000000; stroke-width: 2px; stroke-dasharray: 10 5;"/>
<text fill="BLACK" font-size="30" x="510" y="1395">51</text>
<line x1="5650" y1="1375" x2="5650"   y2="0" style="stroke:#000000; stroke-width: 2px; stroke-dasharray: 10 5;"/>
<text fill="BLACK" font-size="30" x="5650" y="1395">565</text>
<line x1="40" y1="1375" x2="40"   y2="0" style="stroke:#000000; stroke-width: 2px; stroke-dasharray: 10 5;"/>
<text fill="BLACK" font-size="30" x="40" y="1395">4</text>
<line x1="5650" y1="1375" x2="5650"   y2="0" style="stroke:#000000; stroke-width: 2px; stroke-dasharray: 10 5;"/>
<text fill="BLACK" font-size="30" x="5650" y="1395">565</text>
<line x1="2660" y1="1375" x2="2660"   y2="0" style="stroke:#000000; stroke-width: 2px; stroke-dasharray: 10 5;"/>
<text fill="BLACK" font-size="30" x="2660" y="1395">266</text>
<line x1="800" y1="1375" x2="800"   y2="0" style="stroke:#000000; stroke-width: 2px; stroke-dasharray: 10 5;"/>
<text fill="BLACK" font-size="30" x="800" y="1395">80</text>
<line x1="4370" y1="1375" x2="4370"   y2="0" style="stroke:#000000; stroke-width: 2px; stroke-dasharray: 10 5;"/>
<text fill="BLACK" font-size="30" x="4370" y="1395">437</text>
<line x1="330" y1="1375" x2="330"   y2="0" style="stroke:#000000; stroke-width: 2px; stroke-dasharray: 10 5;"/>
<text fill="BLACK" font-size="30" x="330" y="1395">33</text>
<line x1="3800" y1="1375" x2="3800"   y2="0" style="stroke:#000000; stroke-width: 2px; stroke-dasharray: 10 5;"/>
<text fill="BLACK" font-size="30" x="3800" y="1395">380</text>
<line x1="1550" y1="1375" x2="1550"   y2="0" style="stroke:#000000; stroke-width: 2px; stroke-dasharray: 10 5;"/>
<text fill="BLACK" font-size="30" x="1550" y="1395">155</text>
<line x1="460" y1="1375" x2="460"   y2="0" style="stroke:#000000; stroke-width: 2px; stroke-dasharray: 10 5;"/>
<text fill="BLACK" font-size="30" x="460" y="1395">46</text>
<line x1="3750" y1="1375" x2="3750"   y2="0" style="stroke:#000000; stroke-width: 2px; stroke-dasharray: 10 5;"/>
<text fill="BLACK" font-size="30" x="3750" y="1395">375</text>
<line x1="4190" y1="1375" x2="4190"   y2="0" style="stroke:#000000; stroke-width: 2px; stroke-dasharray: 10 5;"/>
<text fill="BLACK" font-size="30" x="4190" y="1395">419</text>
<line x1="3100" y1="1375" x2="3100"   y2="0" style="stroke:#000000; stroke-width: 2px; stroke-dasharray: 10 5;"/>
<text fill="BLACK" font-size="30" x="3100" y="1395">310</text>
<line x1="4740" y1="1375" x2="4740"   y2="0" style="stroke:#000000; stroke-width: 2px; stroke-dasharray: 10 5;"/>
<text fill="BLACK" font-size="30" x="4740" y="1395">474</text>
<line x1="3980" y1="1375" x2="3980"   y2="0" style="stroke:#000000; stroke-width: 2px; stroke-dasharray: 10 5;"/>
<text fill="BLACK" font-size="30" x="3980" y="1395">398</text>
<line x1="4940" y1="1375" x2="4940"   y2="0" style="stroke:#000000; stroke-width: 2px; stroke-dasharray: 10 5;"/>
<text fill="BLACK" font-size="30" x="4940" y="1395">494</text>
<line x1="5340" y1="1375" x2="5340"   y2="0" style="stroke:#000000; stroke-width: 2px; stroke-dasharray: 10 5;"/>
<text fill="BLACK" font-size="30" x="5340" y="1395">534</text>
<line x1="1150" y1="1375" x2="1150"   y2="0" style="stroke:#000000; stroke-width: 2px; stroke-dasharray: 10 5;"/>
<text fill="BLACK" font-size="30" x="1150" y="1395">115</text>
<line x1="4100" y1="1375" x2="4100"   y2="0" style="stroke:#000000; stroke-width: 2px; stroke-dasharray: 10 5;"/>
<text fill="BLACK" font-size="30" x="4100" y="1395">410</text>
<line x1="2070" y1="1375" x2="2070"   y2="0" style="stroke:#000000; stroke-width: 2px; stroke-dasharray: 10 5;"/>
<text fill="BLACK" font-size="30" x="2070" y="1395">207</text>
<rect rx="13" x="3160" y="825" height="50" width="180" style="fill:#006400"/>
<text fill="black" font-size="30" x="3250" y="860">1</text>
<rect rx="13" x="3980" y="495" height="50" width="540" style="fill:#a52a2a"/>
<text fill="black" font-size="30" x="4250" y="530">2</text>
<rect rx="13" x="0" y="880" height="50" width="80" style="fill:#006400"/>
<text fill="black" font-size="30" x="40" y="915">3</text>
<rect rx="13" x="4760" y="1265" height="50" width="350" style="fill:#006400"/>
<text fill="black" font-size="30" x="4935" y="1300">4</text>
<rect rx="13" x="0" y="440" height="50" width="510" style="fill:#a52a2a"/>
<text fill="black" font-size="30" x="255" y="475">5</text>
<rect rx="13" x="5350" y="660" height="50" width="300" style="fill:#a52a2a"/>
<text fill="black" font-size="30" x="5500" y="695">6</text>
<rect rx="13" x="30" y="165" height="50" width="10" style="fill:#dcdcdc"/>
<text fill="black" font-size="30" x="35" y="200">7</text>
<rect rx="13" x="5120" y="1320" height="50" width="530" style="fill:#006400"/>
<text fill="black" font-size="30" x="5385" y="1355">8</text>
<rect rx="13" x="2080" y="825" height="50" width="580" style="fill:#dcdcdc"/>
<text fill="black" font-size="30" x="2370" y="860">9</text>
<rect rx="13" x="540" y="495" height="50" width="260" style="fill:#dcdcdc"/>
<text fill="black" font-size="30" x="670" y="530">10</text>
<rect rx="13" x="4200" y="1155" height="50" width="170" style="fill:#006400"/>
<text fill="black" font-size="30" x="4285" y="1190">11</text>
<rect rx="13" x="50" y="220" height="50" width="280" style="fill:#dcdcdc"/>
<text fill="black" font-size="30" x="190" y="255">12</text>
<rect rx="13" x="3370" y="990" height="50" width="430" style="fill:#006400"/>
<text fill="black" font-size="30" x="3585" y="1025">13</text>
<rect rx="13" x="1160" y="715" height="50" width="390" style="fill:#dcdcdc"/>
<text fill="black" font-size="30" x="1355" y="750">14</text>
<rect rx="13" x="90" y="825" height="50" width="370" style="fill:#006400"/>
<text fill="black" font-size="30" x="275" y="860">15</text>
<rect rx="13" x="3200" y="440" height="50" width="550" style="fill:#a52a2a"/>
<text fill="black" font-size="30" x="3475" y="475">16</text>
<rect rx="13" x="4100" y="1100" height="50" width="90" style="fill:#006400"/>
<text fill="black" font-size="30" x="4145" y="1135">17</text>
<rect rx="13" x="2670" y="880" height="50" width="430" style="fill:#dcdcdc"/>
<text fill="black" font-size="30" x="2885" y="915">18</text>
<rect rx="13" x="4370" y="1155" height="50" width="370" style="fill:#006400"/>
<text fill="black" font-size="30" x="4555" y="1190">19</text>
<rect rx="13" x="3760" y="495" height="50" width="220" style="fill:#a52a2a"/>
<text fill="black" font-size="30" x="3870" y="530">20</text>
<rect rx="13" x="4530" y="550" height="50" width="410" style="fill:#a52a2a"/>
<text fill="black" font-size="30" x="4735" y="585">21</text>
<rect rx="13" x="4950" y="605" height="50" width="390" style="fill:#a52a2a"/>
<text fill="black" font-size="30" x="5145" y="640">22</text>
<rect rx="13" x="830" y="660" height="50" width="320" style="fill:#dcdcdc"/>
<text fill="black" font-size="30" x="990" y="695">23</text>
<rect rx="13" x="3820" y="1100" height="50" width="280" style="fill:#006400"/>
<text fill="black" font-size="30" x="3960" y="1135">24</text>
<rect rx="13" x="1560" y="770" height="50" width="510" style="fill:#dcdcdc"/>
<text fill="black" font-size="30" x="1815" y="805">25</text>
</svg>
